Message-Id: <4.2.0.58.20000515063820.00a97180@pop.example.com>
X-Sender: doug@pop.example.com
X-Mailer: QUALCOMM Windows Eudora Pro Version 4.2.0.58 
Date: Mon, 15 May 2000 06:39:19 -0400
To: Doug Sauder <doug@example.com>
From: Joe Blow <joe@example.com>
Subject: Test from Eudora 2
Mime-Version: 1.0
Content-Type: multipart/mixed;
	boundary="=====================_391535838==_"
X-UIDL: I19e9%6*!!`MN!!#\U!!

--=====================_391535838==_
Content-Type: multipart/alternative;
	boundary="=====================_391535848==_.ALT"

--=====================_391535848==_.ALT
Content-Type: text/plain; charset="iso-8859-1"
Content-Transfer-Encoding: quoted-printable

Des Kaisers neue Kleider

Vor vielen Jahren lebte ein Kaiser, der so ungeheuer viel auf neue Kleider=
 hielt, da=DF er all sein Geld daf=FCr ausgab, um recht geputzt zu sein. Er=
 k=FCmmerte sich nicht um seine Soldaten, k=FCmmerte sich nicht um Theater=
 und liebte es nicht, in den Wald zu fahren, au=DFer um seine neuen Kleider=
 zu zeigen. Er hatte einen Rock f=FCr jede Stunde des Tages, und ebenso wie=
 man von einem K=F6nig sagte, er ist im Rat, so sagte man hier immer: "Der=
 Kaiser ist in der Garderobe!"=20
In der gro=DFen Stadt, in der er wohnte, ging es sehr munter her. An jedem=
 Tag kamen viele Fremde an, und eines Tages kamen auch zwei Betr=FCger, die=
 gaben sich f=FCr Weber aus und sagten, da=DF sie das sch=F6nste Zeug, was=
 man sich denken k=F6nne, zu weben verstanden. Die Farben und das Muster=
 seien nicht allein ungew=F6hnlich sch=F6n, sondern die Kleider, die von dem=
 Zeuge gen=E4ht w=FCrden, sollten die wunderbare Eigenschaft besitzen, da=DF=
 sie f=FCr jeden Menschen unsichtbar seien, der nicht f=FCr sein Amt tauge=
 oder der unverzeihlich dumm sei.=20


--=====================_391535848==_.ALT
Content-Type: text/html; charset="iso-8859-1"
Content-Transfer-Encoding: quoted-printable

<html>
<font size=3D5><b>Des Kaisers neue Kleider<br>
<br>
</font></b>Vor vielen Jahren lebte ein Kaiser, der so ungeheuer viel auf
neue Kleider hielt, da=DF er all sein Geld daf=FCr ausgab, um recht geputzt
zu sein. Er k=FCmmerte sich nicht um seine Soldaten, k=FCmmerte sich nicht u=
m
Theater und liebte es nicht, in den Wald zu fahren, au=DFer um seine neuen
Kleider zu zeigen. Er hatte einen Rock f=FCr jede Stunde des Tages, und
ebenso wie man von einem K=F6nig sagte, er ist im Rat, so sagte man hier
immer: &quot;Der Kaiser ist in der Garderobe!&quot; <br>
In der gro=DFen Stadt, in der er wohnte, ging es sehr munter her. An jedem
Tag kamen viele Fremde an, und eines Tages kamen auch zwei Betr=FCger, die
gaben sich f=FCr Weber aus und sagten, da=DF sie das sch=F6nste Zeug, was ma=
n
sich denken k=F6nne, zu weben verstanden. Die Farben und das Muster seien
nicht allein ungew=F6hnlich sch=F6n, sondern die Kleider, die von dem Zeuge
gen=E4ht w=FCrden, sollten die wunderbare Eigenschaft besitzen, da=DF sie f=
=FCr
jeden Menschen unsichtbar seien, der nicht f=FCr sein Amt tauge oder der
unverzeihlich dumm sei. <br>
<br>
</html>

--=====================_391535848==_.ALT--

--=====================_391535838==_
Content-Type: image/jpeg; name="16.jpg";
 x-mac-type="4A504547"; x-mac-creator="4A565752"
Content-Transfer-Encoding: x-uuencode
Content-Disposition: attachment; filename="16.jpg"


begin 600 16.jpg
M_]C_X``02D9)1@`!`0```0`!``#_VP!#``0#`P0#`P0$!`0%!00%!PL'!P8&
M!PX*"@@+$`X1$1`.$`\2%!H6$A,8$P\0%A\7&!L;'1T=$18@(A\<(AH<'1S_
MVP!#`04%!0<&!PT'!PT<$A`2'!P<'!P<'!P<'!P<'!P<'!P<'!P<'!P<'!P<
M'!P<'!P<'!P<'!P<'!P<'!P<'!P<'!S_P``1"`#A`(0#`2(``A$!`Q$!_\0`
M'P```04!`0$!`0$```````````$"`P0%!@<("0H+_\0`M1```@$#`P($`P4%
M!`0```%]`0(#``01!1(A,4$&$U%A!R)Q%#*!D:$((T*QP152T?`D,V)R@@D*
M%A<8&1HE)B<H*2HT-38W.#DZ0T1%1D=(24I35%565UA96F-D969G:&EJ<W1U
M=G=X>7J#A(6&AXB)BI*3E)66EYB9FJ*CI*6FIZBIJK*SM+6VM[BYNL+#Q,7&
MQ\C)RM+3U-76U]C9VN'BX^3EYN?HZ>KQ\O/T]?;W^/GZ_\0`'P$``P$!`0$!
M`0$!`0````````$"`P0%!@<("0H+_\0`M1$``@$"!`0#!`<%!`0``0)W``$"
M`Q$$!2$Q!A)!40=A<1,B,H$(%$*1H;'!"2,S4O`58G+1"A8D-.$E\1<8&1HF
M)R@I*C4V-S@Y.D-$149'2$E*4U155E=865IC9&5F9VAI:G-T=79W>'EZ@H.$
MA8:'B(F*DI.4E9:7F)F:HJ.DI::GJ*FJLK.TM;:WN+FZPL/$Q<;'R,G*TM/4
MU=;7V-G:XN/DY>;GZ.GJ\O/T]?;W^/GZ_]H`#`,!``(1`Q$`/P#[^HHHH`**
M**`"BBB@`KS+XK_''PY\*+=(+I9]3\07"EK71K`;YY!_>;M&F?XVP/3)XIGQ
M\^*#_"KP!/J%DJR:_J4RZ;I,3$;3=2`[78'JJ`,Y'?;COFOC&RM)(!)-=W<]
M_J5P0]U?W3EY[F3'+.QY/L.PP!P*B<^4\S,LQ6#BDE>3.[UG]H'XPZ[=+=6.
MIZ#X;MP^Y;"&P^VG;V5Y789/KM5:X+Q]X^^)_P`4;[PLWB/^R[.V\.WIG,FA
M7,L$UTI,9+JKY59%"$*20!O?@Y!JY2$!@01D'J#6/M9'SJSO%W=VG\CZ-T[]
MK?0EE":YX4\0Z="6`^U0)%>1*O'+"-_,_*,]*]D\&>/_``S\0]-;4?#&M6FJ
M6L;;)#`_S1-_==#AD/'1@#7YV6L5YH>N+;>9)/H]_GR0[;FM90"Q3/785!(S
M]TC'0BM-]4U;P-J2>,O"CK;>(-.'F.H&$OX1R\$H_B5@.,\J<$8-6JNMF>GA
ML[;FH5DK/JOU1^DE%8_A/Q)9^,?"^C>(=/+&QU:SBO(=WW@DB!@#[C."/6MB
MMCZ(****`"BBB@`HHHH`***JZAJ=EI-L]UJ%Y;VELG+2W$JQHOU)(%`%JBO&
MO$/[4GPTT2006FL3:]=L[((=#MVNAD+GF08C'4#EQU]`2/&O%?[4?CV\G>?2
M;/0/#.BQJ=TFHEKRX(_O$ADC0@=OG&>YJ7)+<YJV,H4?XDDOS^XZW]L^[AL=
M$^'D]Q(L<*^(<%V.`,VEP!D_4BOFW_A+M';F&Z>X7IOMH))E_P"^D4BJ_P`2
M?B#IGQ?AL8/&OCRUU.UL6,D%NEQ;V\:.1@OB-02<<<DCKBLBTTKPK9Q0?V7X
MBELH(U_=1V^KL8QGN$9F4]>XQ6,VI.Y\YF52CB:BG:6BMMI_7R-]/%^B-)Y;
MZA';R9P%NE:`D^P<"MH$$`@Y![USEIK4$+A+KQ!I%W!V8NL<@^N&()^@7^E:
M/_"1:/\`]!:P_P#`A/\`&LVCQJE*S]U/^ODC(\53*^O>$+$MM::^><$=<1P2
M$_S`_&I?$WB6?1;BV@@TV:[60%I7"L$4$$*NX`C)(]^!TR5!RM=U/2[WQAX,
M>"^MIIHY[G_5S*V%-N^<X/J%KN>&`/!!YIO2QK.U-4^>-]'IMU9]4?LB232?
MLZ^"!<&3S(XKF+$C;F54NIE5<^P4#\*]MKYN_8SO[D^"O%NBSJGE:1XAN!`5
MX_=S(D^/P,IKZ1KJ3NC[RE-3A&:ZJX4444S0****`"L'QEXPTGP'X=O->UJX
M,-C:@9"+N>5R<+&BCEG8D``=S6]7F/QO^%=_\6?#VE:;IWB!-%N-/U!;X2RV
M8NHY,1R)M*;E/_+3((8=*"9\RB^7<^6?B=^TMX\\1M;6]K=-X/TJ]D$5O8:2
MGVO6+USP(P^"$8\<1J2"<;CD57\(?!#Q_P#$B[M+O4O#%];:<@\R._\`&.H2
M2388_,4@;S'5^.C!.W(KZ=^$W[/7A_X8W#:O=7$GB#Q7(I1M7OHU#1+G[D*#
MB)?7')[D]*]?J.6_Q'$L)*JKXF3;[)M+\-7\SY"\0?";PKX#NK'2_$7BC6=7
M\0WX9['1/#EG'#+-&`02_F>9L0$C]X7B&5[]*RKC]G#P=K]U9:KXJM;F*.W,
M<*Z6NJ33IO9@%\Y\@,Y)48C6-1D_?X:N\(_LWXK?%.VUP3IJ-X]I>V=S"6,L
MNG&%8XTBVC=\DT<X(`^\_?=5F33O%,?Q*BNM/&EV_A&6$/?[=HN+B<(Z\@1[
MBP_<88N`%4C!)&/&QN*G&;I0]U+[V>_EV586E"-6,$V_+8Q=1^'7PXN-.O\`
MX96^CV&G2:EIC3>7:VP63R@^T2B3'+*[`C))SZC-?FKXY\$ZA\,/'%[X?UNV
M\R6PG!YX6YBSE7!YP&7\LXZBOO[Q\OBR\^,EC>^!].L/,T;19;&\UC6976R@
M::1&5,CF1U"9P/\`GH,FN'^//[,]WK_A;6_&>I^+]2UCQ9IMDT^UX(X[9HX\
MNT<<:@L@QNQ\QYZ]34X*O[&2YY:2^^YU8NC[5/DCK'[K'QYXGU;PWJ/A7PY#
MI-C)::O:SWRW@<`[H6D5[?YP!O(#2*3@=.@&*^F?A#^RE!XW^%NC:Y=:\;"]
MU.*25(VTJWG"*78(277><@`_>[\'%9/A/]AS5];M=%U2\\4V,>FWL<-S+'#"
MYE$;@,5&>-V#C/2OM*_O="^%_@AYVC^R:#H5HJI%$-Q6-`%5%'=CP!ZDUKC<
M<FE"@];F>#P33<JRTL?%OB32M.^"M^W@/Q+X9T7Q5%%#'/IUVMNEO=W4<C;<
M%2&W,)&9``V[`!QC)%#Q3\-]5T#Q!!I]GJ-YH^I>4L[>'/#(N-4GMHSR#,TD
MB1+R>`"`0>_4^B7'C6'1=6\&:AXXUC3D35-<FU2YFCA\QXTA21HHVVYWNCB&
M+*@8*@#.,GGO#'B#QG?_`!?\5^-K#1-6MO"NKWT,;Q7</EB6($)YKEP"JI&'
MDR.A(7OFI56<4YK>W?1N]O3O_P``GZO1K/DFKJ^UKV7]?TSOO@GXXU/X+:)K
M^KVNO'Q'X;MKU+GQ%I6I:0;#5[,NJJ9TRYWJJ[#@Y4JK!2".?O*SO+?4;.WO
M+29)K6XC66*5#E71AD,#W!!!K\\?'O@3Q-XV:W\;:+(N-<CF\.6&G$;&NK2Y
M0PI*3U;+NTV#P(XPWK7Z`^&M&3PYX<T?1HY&D33;2&T5VZL(T"Y/UQ7H8.K*
MI"\G_P`#R.7%TH4I\D%9?IW-2BBBNLY0HHHH`**X_P"(OQ.\._"[28-0U^YE
M#74H@M+.UA::YO)3_!%$O+']!W(KB'^,/CLZ4VKQ?!7Q(VFX,BHU_:+>&//7
M[-OW!\<[.O:@#V>BN'^&OQ:\,_%:QO)M!N)UO-/=8K_3KV!H+NRD.<++&W(/
M!P>0<'!X-=Q0!YO\5?A4_C_^S=4TC7+CP_XKTC>++4H4$B%'*EX9HR0)(FV+
M\I/!`(KP;Q;\5?%'P=U&RTCQ?\/S=W^J&1X+GPM<)<"^9,;Y/(;;*G&W)8''
M3)K[!K\_)/B392>)O%_B_P`5SQ6NKR:[<:3+'=2[7T^VA?9'"@8<@91V`QDL
M[=L5P8ZE3<.:4;LZ\)6J0ERQE9%'5=9T+XG>+]1U+5?ACXLUZ6(K:36^I:M#
M#:Z=F-2$CC20`D[E9LY92<]<"N6T_P`1?$GX9^#T\(7_`(7GNO"4U^\UW=6=
MQ]IDCT^3!DM0>2O5@7(Z$X_O"]\"?B1I<FF:EHNJ7T::Q!>W5Q-/)("DX,@)
M??DC^,#/`P..A->[5YE2HZ4O9RCHO7\-3LBW-<Z>OR_$JZ+^TYX`_LV!M1&H
MZ#&L.^..>PDEB,:\9CD@#HRC@9!P.E<M\8O'-I\3'T;P9H]G+/I5])'?3W-_
M;W%O:WR)\ZP)((SU.UF)P,*`,EN.<T+0K&Y\?^+=(9C$MA?6NM68B.&B::/$
MZ\@C:Y1@P[B0]#@UZ;86%KI=JEK96\5O;(25BB4*JY))P!TY)/XUC)4Z<E**
M=_4U]K4J1Y96L<C\._AWH7B_QGXKT[Q/I%B\&FZ39V5IIL)(A@AE+M(T6`K`
MEXP-X`(VXK%U_P`$Z+I_B^XTG2-9UGQ-I6FW"RKX5CF$>G:>X((CN;EBQ=,D
MGR0&8#@C`JMXTU72_`OQ&/B;Q!JVM:9I-]H4MA'/I#!)&G20.(BVTX+AOE.1
M@J>1R:ZW]G3X<_!GQ/>W>AM83:_XE6#^V+VY%S<2Z?!YDG%NDF_;*4#*&)#!
MR&Y."!T1C)KVC;M9=-//^EJ8SK1IQ44M=?Z_X<O?!/X]:3;_`!$-I\0K.[M_
M$&HW#6.FZRH#:-""Q"06[#IN&W,C98L=K;0H%?:M<CX@\">'?$_A*?PIJ6D6
MLGA^6$0?8DC")&H^[L"XV%<`J1C!`Q7G?PV\5:O\/O%R_"SQKJ,M\94:7PQK
MMUM#:E;(!N@E;/-Q%G&<#>H#=>OHX/$PFO9I6L>;4;DW)NY[E1117>9A1110
M!\^?`>)OBMXBUSXP:T7N6:\N]*\,Q/M,-GIR2;3+&!G]Y*RG<_7`P#M//T'7
MS;^Q;J#:?\-M7\"7LK_VSX*UB[TZXAE.'"&1G1]O93E\8)'RGFF:CXD^,VJ:
MQX.O8+O[#X;\4ZC/:W-OI&F13W.@Q*&$+RSR>8C,2O[S,853N4$'!`!H_&K3
M_P#A67Q#\)_&#3)1;0-<PZ#XEB`^6YLIW"1RG_:BD*\]2"!G`P?H2OE_]J+5
MI-6_9%U.778F_MF\2R@:*'"F2\%Q&"%4$Y&Y&.T$\#OBOIFR4K9VZL"&$:@@
M]N*`)Z^'/BWX=TSXB?%?Q+KVD6MO;V^F+)IDQM)/FU>\1=DAF##8OEX\I25+
M!E+9X6OLCQAXHL_!7A;5_$.H;C::9;O<.J?>?`X1?=C@#W(KXY\$6&K*WB'7
M->M8+/6/$>J3:I/:6[[TMQ)C;'NZ$J``2!R<UPYA5]G2LGJSIPT.:>I\[G]G
M*[/VZ"VL\^8T/V:252JC:ESN#'.X*TB1$]3MD7N./3;'2OBAX)T69M.N-.U;
M3[25Y(=,OMQN5M@`5B28-AB!E?F'5>X(%>S45X\\7.?Q69W1H1CL>6^"/$FG
M>*?B%>ZO8.GE:AH%G(%R-P99IPZG_:0E5/IQ[5ZE7D?C'X&0:IXE'BKPOK$_
MAWQ#G=))`N8ICW+*""">_.#W&237?>#].US2M"@M?$.K1ZMJ49;==QP"+<N?
ME!`ZD#OQG]3%;D:4H/Y=1PYEI)&;XIU;4=1U>#P7H'AZ75_$>JVKSV@F$8M(
MPK!3)(SMT0E6(`)QBOH_X/?"N;X=:;<W.KZL^L>)]36/[;>%`D2!`<10H`-L
M:EF/J2Q)]O%_A/HT_BG]H=]6@G1=/\&Z089P%R7N+O.$SVPD8;OU'KQ[W\0O
MB#%X).CK&UI-<7.I65M<6KOB46]Q.(!*BCKB1TZ\8SW(K11M%0BM6<=>;<FK
MZ([BN"^+WPW7XF>$9+"WNCI^O6,JWVD:FGW[*\CYCD!ZXSP?4$UWM%1&3BU)
M;F)R/PD\=2>/O!UO=W\/V7Q#8.UAK%D1@VU[%@2+C^Z3AE/=66NZKP_Q$LWP
MR^,V@>)+1F'A_P`=7":+K$&"5CO1&?LEPH'0ML,+$\8*=Z]PKZ.A556"FC)J
MS"BBBM1'@GCWP/K7P\^)LOQ>\%Z;<:O]NMDLO$GAZU`\Z]A7`2X@'1ID`'RG
M[RY`().>&N/VU/!.@R:E)8V&M7%E-:R7LL!LF672+W<RO;W*YP@=P&RI;YF?
M/!&/?/C'XRNOA_\`#'Q-XCL5C-[86N8#+RBR,P168=PI8$COC%?GC^UEX''@
M_6],\67/B2?6-8\27*G5+#;';K<LB;5DC2)0$7;\F3ELG.XDDUE.K&$XP>[V
M-(TI2BYK9&Q\'_B^/C1XZ^&'A;Q=J\&A^%O"7V:Y@M&0LVL:DK!8RS`84;V.
M,\`<=6&/TNK\^/V>_"$/C3X1^(YHY[2'QL^HHX?RU"Z?+;-'+:0X'_+%616V
M\@[F[YKZI\#_`!VAUWQ)I_A'Q)X;U;P[XHNXY/+,\0>PNY(P2ZV]P#^\.U2X
M!53M!R*BGB83G*GLTRZF'E"$9[IG:_$CP7;_`!%\":_X7N93"FJ6K0K,O6&3
MJCCW5PK?A7RAX'U2^U7PW:MJJ"/6+1Y+*_CZ;;F%VBEX[?,A./>OMBOGWQ7\
M`-;M=<U[5_`VKZ9"FLW37\VF:M#(8DN'QYCQRQG*AR&<J5;YB<$`\98[#NO!
M<NZ'AZJIRUV.+HKB_%_C75/AC>Q:9XW\*:K9W\TT=O!<Z?$9["[D?E5BN&V*
M6ZY5MI&#U'-,MO$_CC5]7ET+2OA;X@.N+;+=B&^E@MXEB9R@=G+X`W*W`R3M
M.!7B/"U8NS5CO]O3WN=O7.7/BA[W6;;P]X:L)]=\0W1VK!:#,-MD9#W$O2),
M<Y/)QP#76Z!^S3XK\1ZY:7/Q.\1Z9=:#:9?^P]!2:&&[?C;Y[L=S*/[@X.![
M@_1^B>'])\,Z?%IVBZ99Z;81#"6UG`L4:_15`%'LXQW=S&>)Z11QWP;^&C?#
M'PF]C>WJ:AKVH7+WVJ7Z(5$\[X&%!Y"*H5%'HN<#.*X']J/P+>ZKX5N_%UMJ
MMS&GAVV6ZDLHU;+1Q2K,YC*LOS,$&0^Y3Y:'Y2NZOH"F2Q1SQ/%*BR12*59&
M&0P/4$=Q51J-3YSD>IXK??'V"6PM]1631?"NB7B`V^I>+;Y(9925W`QV:-N=
M<8SODB/H""#6)=?'#P7XGMS%9^*_%VOOPS1>%=)N8XR>ORRI'D`>AE/'K5#4
MOV?_`(?^%/BGIUSI_A/28[&\T>8+;R0+*BSQ31YD4/G#;90/H/K7ID420QK'
M$BI&HPJJ,`#V%*K6IP=HK^OQ.[#8+VT>=RL?*=]H#?$3XN>$_#?AWP7XVMKJ
MTNK76FU;Q=X@GE*6$%POF,MM)(W\14`$[AO^Z,Y'Z!UYOX5@TP>-(9W51K+:
M=.D+;1EH!+"9!G&<!C'QG')KTBO<P,_:45(X\52]E5<$%%%%=9SE/5M)L=>T
MR[TS4[2&\T^\C:&>WG0,DB$8*D'J*_-?]JGX.:%X:\9:UK'@."ZAM_#-E;C4
M8'B>]BAN9!N2,>86VKY)\QBP*J2G]_C]-*^3/C!/X@^&_P"T#IEUX;MK;4K;
MXA6;_:],O;@PJUU9Q*H>.7:P5FAV+M(P=G/:L:\I0@Y0W7],UHQC*:C+9GR=
M^SGI4_B_4?%CW?B2]TOQ]=0VUSHJ_:)+8W?ELSL"``KQD*B[><*6(7BOLSQ+
M8ZEX]\!27/\`8D^C^*M-D%[IT%W(C-!>P'=&RR1L049AC(/*L<@=*\1^/OC.
M\U:R\&Z5XT\$77A2PN=4BD?6)+Z.YDM!'AG$(M6=R2A=<D`<@X[CTW1OCK\.
M-$T:WCTQ]:7PY:KAM1.D7IMK?+[1YDLD>>7=1DYY8<UXE=U:K5:$7?RUM;S7
MY'L452IITIR5O/2]_)_F>^?"3XM>'_B_X2LM;T:ZB^T-&/ME@7'GV4W1HY%Z
MC!!P>A'(KO:^>1H?AOQFEMXFT"^C@U!ES:Z_HDRK-@8XWKD2+P`4<,IQ@K6=
MXK^.?Q(^&_AV^74_`Y\3W:Q%;+5]"XC:0@A3<6Q)>/G&2A93[=*]+#YA3JOE
ME[K\SSZ^!J4O>CJO(YWXRZ4GQ'^.UPB:IJ>FZ#X,T&2'5[V*16A,T^)1"(I%
M>-L18=R5.1L4]!3OA9\`X?'W@.+Q3XIG>UU[5XXWTI[2TBM4T^Q1V:!3:J/)
M8N&:1P5/^M(&,9H\3>'YM(^&6E^#HV=]>\:7L&FW]VN#+/-<D&\N&)^\WEB9
MN>@`'0`5]40PQ6T,<,,:1PQJ$2-%"JJ@8``'0`5Y]7%2J-SCHF]/1?YCKT8T
ME&'7=_,X/P-X)\4>$I8HK[QM_:^DQ1^6EB^D6]L(P.A1HMN/Q!'\Z[^BBN:4
MG)W9SA1114@>?>,[C2_$7A2S\4:=,MTFCW`O(IX>JH,QW`(//$;294\AE'&0
M*@KC-0\/3_#7XBWNIZQ=7=_X"\6H--N9))%*V<\C;8Q=!AF1&W>6DV=RY5'+
M+M*ZG@R\GN="C@N\?;M.FFTZYQQND@D:(MCL&V;A[,*6(A9*2V/5RVI\5-^I
M@:MXWM/"/QX^&-O<75I&FM6VI:5(LDH#KYGD21,%]#);A,\<M7TE7QO^T/X/
M\/R^'+O5Y;&RE\5ZM=:?I>FWMZF_[-*;A=FQL9C7YG9MN,C/7@5]BQ;_`"D\
MPJ7VC<5Z$]\5[>623H)+I_PYQ9C%JNV^O_##Z***]`X0KF?'/P_\.?$C0Y-'
M\2Z9%>VC<HQ^62!O[\;CYD8>H(KIJ*`/(/!/[-?@GP/XJMO$\#:UJFM6D;1V
ML^L:E)=_9]P()0,<`X)&?<XKTKQ'X>LO%6C7.DZBC/9W&W>JXR=K!AU![J*U
M:*226B&W?<_/WXG>%/$_[)6OP^)/",TNI>$+IK.VO]):!EAD8Q,ID3`VK*?L
MSEB,D&1200<5]'>#/&VB>/\`0XM8T&]2YM'.UQT>&3`)C=>JN,\@U[)K>AZ=
MXCTRYTS5K*&\L+J-HI89EW*RLI5A[95B,CUKY^^+_P`!=2L/$%I\1OA/:PV_
MC&WD']I:8T_DP:W`<[@^>/-S@AF(SR2<@5Y^-P$:ZYHZ2_,[L)C71]V6L?R)
MY)?[7^/7@31_+=H]*L+_`%J1C'N0-M6WCY_A/[Z0Y_#OQ[]7R=X>^)%YIW[2
M7A&+Q#X0UGPV?$.ASZ7"VK&)5,PD6;"&-G#Y*!.2IRPXZ`_6->5.G*FHQDK:
M?JR<3452K*47=!11169@%%%%`%/5])LM>TN\TO4K9+FPO8F@GAD'RR(PP0?P
M-?)G[,WB34]:MO'UAJTHN+O2=?DM#<AF/FB.*.+<0Q)R?)WDYY9R>*]%_:._
M::\/?!+0;NSMKJ&]\;7$)%EIR?/Y+$<2S8^Z@R#@\MT'&2/EW]@W6);S4_B#
M%.#)/=?9;IYB>K;IL\>Y;-=#HR^K3FUII;[SJP,K5XKU.O\`VL=<-QI%[:AI
M[P:%-97RVUO`LEK`[3(NZ\W??+!MJ0J>0S,P((*_=.A22S:)ILD\@EG>WC9Y
M%@,`9BH)(C))3_=))'2O@#]IDS:WXPT702DCW%QJ5NL'VF[B1Q",/(;=3^[A
M4;26FF^8\J,H&K[Z\-ZS8^(-"L=1TV^@O[.>/Y+F"82I(0=K8<`!OF!&0!TK
MT\NC:@B,>[UF:M%%%=YQ!1110`4444`%%%%`'R?^W1#]I\->"T6"X%Q#?7EW
M;W=NQ1X)H;">2/:P.X-O5&&.OEU\Q_"_]N[XF^'Y+/2M9L[7Q=$^((5GS#=N
MY.$'FH"&Y./F4D^M?7_[:VDS7_P?M;VVN'MKK2M8M;J.XC7,D;$M&"I[<R#/
MJ`1WKXML/&-SHZK>:;X5\(V_B%=W_$V2Q*ON.<N$!PK<^N/;M656%.>E1'+6
MQU'#RY:LK,^J=)_;V^'8N;JP\3:?K&@ZG9L8YH]B7<7F#AE62)CG!SS@=/PK
M7'[=GP9)P-8U,G_L&R_X5^5.H_:/[0N_M3%[KS6\UF.2SY.3^=;.E>$-3U*U
MAO;4P>6QRI9\$$'TQ[5RRP%'?4WJ8J%*//.229^AOCS_`(*%>"-%M9HO"NC:
MIK.IXPANH_LL"G_:)RYQZ;1TZ]Z^6_'?[;?Q9\;6ES90ZG:Z#93\%-(A,4FW
MGCS6+..V2I'3MR*\UU?P)?ZEKD]PLT*VTS[BY)RO'/'UK1L?AQIT!5KF>:Y8
M=5^XI_`<_K54Z%"FKVNSSI9UAHP4I2U:V1RJ^&]1\06=GJ$(:>>X+B>663))
M#<,2QR>/3TKZ=_8QT4:!\5-=M5F,K-H(DD/;<9T&!^5<;X.\'ZSXWU^+PSX6
ML[?SHHA+<3S';;V4.<!FQR23T4<G\Z^U?A-\)=,^%6D3P6\[WVK7S*]]J,JA
M6G89V@*.%1<G"CU).2:Y<?BHJFZ;W9W9!'&8JLL3-<M)7MW?;[CG/AY\,K+Q
M]\>_%=SXQMX-8L_",,$ME:FS$5DEU=,TAD"#/F2+%''DR%OF?(``3'UPJA5"
MJ`%`P`.U?)>L?&>W_9K\3^()]?T'4M3T/Q?>"^LKO3Y(VDCN$MXHG@='*A5Q
M$&5@23DC'%<5K/[;/C;Q9;W/_"%>%M*T5(=N)-9F>XFDRH8;40*J@@X!);/\
MO2P%.56C!4U?3_ASJQTU2JR=1VU_X8^ZJ*XKX5_$O2OBKX+L?$>FMY9DS#=6
MKGY[6X7'F1-[J>_<$'O16IF=K1110`4444`%%%%`'F7[0^B-K_P2\<6D:EI8
MM.>\11G):`B88QU.8Q@=^E?FE7ZY7]E#J5C=65RF^WN8FAD7)&Y6!!&1R.#7
MY`>)/#=Y'<S:?-.;>^LG>"24!U99%;!XR,<CG(_"L:JV/G,^IQE*FY.RUU^X
M\R\>Z5)9:U)=!,6]UAE(Z!L`,#[YY_&NE\$Z;>:]IB6%GJ#V,]E:F[C")O-S
M-)<I;PQ$=@7E4DG/'8\5MVRP>)='$5_"'96*31\C;(IP<$=/\#76_#BVM+.[
M\8,NV./2K32]0\M<;O)M[Z.23&2.`!R>W&:<97]UEX'$QQ')A*T;N%_3167Y
MG,:K>W_@_P`0W'AOQ;9_V;K-L54D'=%*#T=6'\)'?^7(I+KQ+I5FVV2\1GP6
MVQ`R'`[_`"@XKZ(_:#T*/QZ^K>(]+T>WNK/P$4MM;NIGPT\4H1VCC3!W>6'6
M0L2N.0,Y->%P6-II-AJ%J(HY+;3(QJ%I(H!8Q-O.S)Z_=9?=6%=.%P=/$N7+
M/X=&NVE_R,L9E5"%1-)I/HCH_@!\3-1^'VM7]S:Z);W&D^(=7M+>ZNKB3%S#
M&7\O:J>S2@C)Z=N<C]!*_,:R\8:-I&N6XDN%:S66VF8+\Q'DRQNC#'<Q$?\`
M?OUK[#_:%U_4-6@\&^"_#,>I7^I>*+Y97@TB;RY9K&(;Y`).`BME`7)``R>0
M"#Y&<X&"Q%.%'>2U]5_P#[/)L3*.&DJFT;6]/^'./_;0N3J&D^"]&LC`-0DO
MI=12=@"8HX8\'GLI:1>.Y`]*^=?"6M"_UR.QT33=2U65K811VNF6KW+G`$BH
MH7^Z'=>>FP9Q7W!X<_8\TSQ!KEMXF^)]RFJW4$"6]GX>T]FBTW3X%^[#GAYM
MOJ=H)SE3QCZ2T/P[I'ABQ6QT32[+3;)>1!9P+"F?7:H`S7IY;.6"HJ$=]V<.
M/C'%U7.6Q^=WA+]G_P#:,6WU"\T&SL_#>GZC=M=K8ZA>HLQ+(@WE4W;20HR&
MP00<CIDK](Z*<I.3<GU%&*BDET"BBBD,****`"BBB@`K\QOCGIBZ/\7_`!E:
MJ`!_:#S<9Q^]`E[_`._^=?IS7YX_M96HM?C?JQ\S<;JSM;G&W&SY/+QGO_JL
M_C6=5>Z>+GM/FPW-V?\`P#Y]LR+;7+^V'"SHER!CC/*M_P"@K^==1X+UJS\+
M^/+.]U4[=`UBTET+4WW;?+AGP`Y/8!\9/85RU["8]>TRZ!P'62W;CKD;A_Z"
M:T+J""^BFM)E#HZ8=3Z'/^%8IV:9\]1Q#P]:G76NFOY/\CZATSPCH7Q-T/6=
M/U#5-4L?%=E#_9NO1Z3J,EN;X(I2.2:)25D26/YE+`_*Y&:^,K/6;SQ99:9H
M)FE@M;2V_P!.V#8[LK%1&?;`!_.NV\"^,M3^%7B>RUU].N/$,-I%]EC\JY>&
MX6':56-PN5E5=WR[E)7`P0``.:\*::]M'>WUQ`T-Q?SM*8W^\BY)`/YFNE5G
M3C+D=N;<^@Q^/HRPWM:4KOIW3-.QT6PTV%HK:UC1'!#<9+`]B3R:]<_9/T^>
M3]I#PLL4EU-!INDWC;9[AI%MX=NQ50,?E4-)]U?[V?6O,J]D_8__`.3BX_\`
ML7KK_P!'15ST]9'DY-6J2Q:3D];WUWTZGZ+4445TGV(4444`%%%%`!1110`4
M444`%?#O[;-GY/Q!\-WFYS]JTIH@NWY1Y<S'.?4^=T]J^XJ^0?VZXHHX/A]>
MO(5?[1>6BK_"=Z1OGZ_N0!]3435XLX,TI\^$FO*_W:GQAKBXMH)@2#;W$4F0
M,\;@&_\`'2:N7-R+=H`V-LLGEY/8D''Z@#\:9J4#76GW4*_?DC95QU!QP?SJ
MCK,WFZ']K0,-GEW`&<8`8,?T%<ZU/BZ:4U&+[V^^UOU-BB@'(R**DYPKV7]C
M6WFNOVC+R6/#067AR;S.0-I:>,#Z]J\:KW']AU@?CWXO`()'AX`^W[^*M*7Q
M'LY$KXJ_9,_0FBBBND^R"BBB@`HHHH`****`"BBB@`KY:_;T\.1:U\(=*O3<
M:?!+I.LQ77^E7*P231B&8/'"S$;I,8<)G)$9QD@`]K\:_P!H.V^'FHCPKH-M
M'J/C.>W^T[)LBVL8B<"28CDD\[47DXY*C!/QQ\2]/O?B;?/KFO7?]J>((X3%
M#)=*HB"<D1!`,(F2>1\P)SD]^3$8VE0?++<Z:6"J5XMK;^MCR*VO[U(-ZQKJ
M,!YCFMG4,P_V@<#/T/X"L_2=2CNK34]+NLV\R/(@28A3L?)`R..,XXKT#1_A
MS;36)DNH&T^]?#I-9/Y38(R!)&,Q[EZ'`(/6L7Q/X0N/"PU#60_]IZ9(B?:H
M9%`D0+QN`^ZP]1Q7-#&49RY+ZGS^)X:Q%&$IP2DM]-'H^VVU]B+3I/-T^T?=
MNW1(=V<YX'-6:Y:RETU(8HH]2GL)C$"87?:`2,\*X('X<5JB.1@"-9<@\@A8
MN?\`QVNEH^6K8=PFT]/5-?H:G2OI[]@30OM6J_$CQ;&=UG/+:Z;"X'RNT:%I
M,'VW1]#W^E?(L.ER>([N/2M.74/$>J7))@TVQ'F-)@9.5C'W>Y)XK].?V9OA
MA>_"3X/Z+H&JQP1ZU(\M[?K`<JLTKEMO''RIL3CCY>*UI1MJ>[D>$<)2K.^U
MMK+_`#_`]=HHHK8^C"BBB@`HHHH`****`"BBB@#Y&_:(_9&UKXA^.KOQYX+U
MZ&TUR^ABBNK2]FEB1BBA`T<L?*_*JY4J02,Y&:\,O_V>OV@]&F,4&AS7P+$>
M=9ZK9R(0#@']\`1GKT'O7Z645A5PU.J[S5S:GB*E-6@['YER_`_]H4H0GA;5
MR3Q@WNE+^H:L#QU^S]\3O!GP_E\=>.[B*VTFPGMQ/I,VH&>X97G"'Y8@(NX/
M+-P?48K]4ZY;XC>`-'^*'@W5/"NNK*=-U%`K-`P62-E8,CJ2"`RLH(R"..0:
MB&#HP^%%RQ56>[/S'\365WXT>&VB\/VUWI&$DAOKB_:.-P1G<$C.2,'`S6;<
M?!_3EMR8=)T]K@'*E;J>,?3YC(#SZBNR^(OPH^(W[/.H7CM9_P!K>#59GCU&
M.-FM]F>-X7)MWQUR"A)XK@)?BMJVM20V.CV=I'>S-M1+>1KZ:4]E2)57+&O)
M=+$TFH0T7J_\_P`CTU4P]1.<]7\OZ^\]O_8:M=:\/?'77M)O8XK6UNO#C3&W
MB,1WF*>%49M@'($CC.!G/>OT1KY&_8R^`NO^!9M9\>^,;5[37=<MTM[6UG??
M/%;DAW:7^Z[L$^7C;MP0.@^N:]RDI*"4MSQJC3DW'8****T("BBB@`HHHH`*
M***`"BBB@`HHHH`****`,CQ7_P`BMK?_`%Y3_P#HLUXU^S7_`,BW<_\`81D_
5]%1T44`>^4444`%%%%`!1110!__9
`
end

--=====================_391535838==_
Content-Type: image/jpeg; name="18.jpg";
 x-mac-type="4A504547"; x-mac-creator="4A565752"
Content-Transfer-Encoding: x-uuencode
Content-Disposition: attachment; filename="18.jpg"


begin 600 18.jpg
M_]C_X``02D9)1@`!`0```0`!``#_VP!#``0#`P0#`P0$!`0%!00%!PL'!P8&
M!PX*"@@+$`X1$1`.$`\2%!H6$A,8$P\0%A\7&!L;'1T=$18@(A\<(AH<'1S_
MVP!#`04%!0<&!PT'!PT<$A`2'!P<'!P<'!P<'!P<'!P<'!P<'!P<'!P<'!P<
M'!P<'!P<'!P<'!P<'!P<'!P<'!P<'!S_P``1"`#A`,0#`2(``A$!`Q$!_\0`
M'P```04!`0$!`0$```````````$"`P0%!@<("0H+_\0`M1```@$#`P($`P4%
M!`0```%]`0(#``01!1(A,4$&$U%A!R)Q%#*!D:$((T*QP152T?`D,V)R@@D*
M%A<8&1HE)B<H*2HT-38W.#DZ0T1%1D=(24I35%565UA96F-D969G:&EJ<W1U
M=G=X>7J#A(6&AXB)BI*3E)66EYB9FJ*CI*6FIZBIJK*SM+6VM[BYNL+#Q,7&
MQ\C)RM+3U-76U]C9VN'BX^3EYN?HZ>KQ\O/T]?;W^/GZ_\0`'P$``P$!`0$!
M`0$!`0````````$"`P0%!@<("0H+_\0`M1$``@$"!`0#!`<%!`0``0)W``$"
M`Q$$!2$Q!A)!40=A<1,B,H$(%$*1H;'!"2,S4O`58G+1"A8D-.$E\1<8&1HF
M)R@I*C4V-S@Y.D-$149'2$E*4U155E=865IC9&5F9VAI:G-T=79W>'EZ@H.$
MA8:'B(F*DI.4E9:7F)F:HJ.DI::GJ*FJLK.TM;:WN+FZPL/$Q<;'R,G*TM/4
MU=;7V-G:XN/DY>;GZ.GJ\O/T]?;W^/GZ_]H`#`,!``(1`Q$`/P#[^HHHH`**
M**`"BBB@`HHHH`*;+*D,;R2.J1H"S.QP%`ZDGL*\ET_X]Z5<W]W:WEA)8&SC
MUMY_.E&4.FS1(XSC;ADE#YS@8QS7SCJ?QVF_:N"^&].FO/"7P_MK>!_$=Z\B
MK/=3RL$2RCDZ*A<D;B,L!R`#@Q4J1IQ<I;(N$'.2C'<[OX@?M7:KXDUZ7PA\
M#]'B\2:K&=EUKLH)T^SR2,AN`^.N[.WTW=*YV+X,_%'Q3=+J/C;XV>)([ML[
MK3PY*UG!'[*5P",XY*`_SKV3POX3T3P5H\&D:!IMMI^GPC"Q0(%R<8W,>K,<
M<L<D]S6S7S]?-*LW:GHOQ/<HY;3@OWFK/FS6O@QXU\&V5SKT'[0OBRPBL096
MFU6XDF@1/]L-+@]AG'X5L>'?V@?C'\.++3KSQOX<@\<>#KJ)9TU_0(F2Y2%@
M"'DA*K_#S@HHY^\:]9\;^"=*^(.@2:%K:S2:;+-%-+%%(4\SRY%<(Q_NDK@C
MT/!!P:XC3?B9XF\7:[JEGX!\&VVJ>'='8V[ZO>:A]D@N95P&BM\1MOV\C/"Y
M'4<9UPN,Q,](^\^NRT]3+$X3#PUE[J^9S7QU\$>(OB\F@_&GX%^*+B^FM8E:
M;3[>Z>,SF)LJ4B.!Y@Y5XVP6```)X;ZS\#:U>^)/!N@:OJ>GSZ=J-]8PSW-G
M/&4>"5D!="IY&#GKS7RW:>,-*\(ZSKWC;PW:2:3XCT5=_B[PK-(L;W%LJAGE
M,8)0R(AWQS)PXRI)W<>B>+/VK-!M-9\.Z#X%T>Y\<Z]KMH+^&VTRYCBCA@()
M!ED;B-L`_*P!'?&1GV*%955>UFMT>76I.F][I[,]_HKE_A_X]TKXC^&H-<TD
MRHA=X+BVG7;-:3H=LD,B]G5@0>W<$@@UU%;&(4444`%%%%`!1110`4444`%%
M%%`!1110`4444`1SSQ6L$D\\B10Q*7>21@JHH&223T`'>O"=4_:P\+K=3IX8
M\->+O&-E;Y$NHZ!IOFVH8=561V0.>.J9'O7.?MBZQJ&I6W@#X:Z?>36J>.=5
M,%^T"YD:RBVF50=IP/G4D_[/<;J\7\4_'/QK\%?%D'@Z#X;Z>_AJV20Z9;6%
MR7N)+&(D"8A"^S@$G>H[^A-<N(KR@U"FDY;ZNQTT*,9ISJ.R]#Y^^-WQE3Q+
MXJ\5MH5KJ6D6][J<US';W]LL-U"+FVCBO(W"L0H=H4XSDY)/)-1Z/\6O#&A?
M"/5/!UC97,=Y>Q:=<O<^6`\EW%=^9,"P/W=@78?P-?6][\,_`_[26E>$_B-;
M6QL-1>2&X>4*KF9(I,/;S+]UN59=W48'4<5P5K^R_P")+W4KRPN+BWT_1I]/
MU33A<Q.'.R2\,]NQC!&<[@2O;R^H)`KDECJ51)5-&GJO-?F=*P=6#O3U3V?J
M<O\`"W]K34M,?0M%N/#^K:K&]QJ3745G;&6XD9Y3-$(<OEM@9U93C"[<9Q7J
M3?M4:V%.WX->-BV.`;9P/_1=>U:1\//#6C-:RVNC6<=U;W4E^LR1X(N9(_+D
ME'H67@UU%>75KT)2NJ?XGI4Z-:,;.?X'R5J_[4OC[4-*OK2#X(>)+::X@>))
MQ+.3$S*0&P+89P3GJ.G45[+^R!?6UY^S]X5C@(\RT-Q;SK@`K()W)!'KA@>?
M6O4*\2U_X6^-?"7BZ^\4?";7=-TYM7?S-2T+54<V,\ISNG&W)5SQG`&?7M79
M@<;1IR<7'E3\VSEQF$K32ES<UO1'%?M<^"=&U7XL_"2XNY+B`Z_=G1KQK)MD
MTD1DC"?-GH#*P/'0GVKN/!W[.>F_"Z]NM1^'^OW^C:E=1B&62\@AO8Y$!W;2
M&4,`3@G:ZYP/;&?\/_@QXMO/'J>/OBMK]GKGB"Q0Q:9:V:_Z-9J23N`*+R-Q
MQQQU))QCWJHQN/?M%["6B*P>"7LW[:.K/%/AAJVN_`'Q1X\U7Q]:37^A>*+Y
M-0;6=#MVDMK)@&#M+;Y,D8(*Y8!P-O)[U]5^'?$NC^+M(M]7T'4[34M,N1F*
MYM91(C>HR.X[CJ*\^90RE6`*D8(/>OGGQQX7U_\`9^OK_P")/PJ&S3LB77/"
MQ&+*XB`.9408V,N<_+TY(XR#T8/,^=J%7?N88K+^1<]+;L?;=%<9\*OB9HOQ
M=\#Z9XJT.3-M>)B6%C\]M,/OQ-P.5/&>A&"."*[.O8/*"BBB@`HHHH`****`
M"BBB@`HHHH`****`/F;]K_3;C28OAW\1XHF>U\%ZTLFH-'G?':3E$D88ZC*J
M".^?K7CGQ:M;SPD_Q>^(TMN;ZUU70+2RT/4X9$:*"&8K"Z`9SG?(LF>01^1^
M[=;T6P\1Z/?Z1JEM'=:=?PO;W$$@RLB,,$'\#7QSJUCK'P%L[OP;XZT&7Q!\
M''_T>QUZ-//:RMV;B*\0#.%W`!P.`HQGHO!C*,FU4@KVW7E>^AVX2K%)TY.U
M]GYVL=Y\"_`D7PZ^%WA_1([EKF3R?M,TI?<IDE^=MGHH+8&/3/4DUZ+7@/P$
MU)-0\8>+K/PQXAO=1^'.A1066G17,ZSJ)V&Y_+?;O\M%`5=S'J<9[>_5\]B$
MU4?,]7K]^I[M!ITURK1:?<%%%%8FP4444`%%%%`!2$!@00"#P0>]+61XH\3Z
M7X-T"_UW6KI;73+&/S)I6&<#H``.222``.I(H2;=D)M)79X?^R;%<?#K]HKX
MJ_#:(/%HDL/]L6=N/]7$OF1A<>GR3JOOL]J^VZ_/+]BCQ!<_$7]IKXB^-7^2
M"[TR8+%(?G1'N(?*7T.U(L'GTQ[?H;7V=)24(J6]CY.HTYMQVN%%%%60%%%%
M`!1110`4444`%%%%`!1110`5YI\=]:N+#X=ZCI&F+'+KWB4'1]/A<9!DF5@[
MD?W8XA)(?9/PKTNOF>V\8Q_$_P".7BBXMF\S0_`L0T>T<$E)+V4[KIQVRH1(
M_P`&_O5AB:WL:4I]C;#TO:U%`U_AS\.]#^&/ABTT+0[.*&.-5,\RKA[F7`#2
M.>I)_08`P`!76T45\C*3D^:6Y]3&*BK+8*\[\:_'7X??#^=[;6_$UFE\C;&L
M[<F>=#Z,D8)7U^;%=GK^DMKNBW^F+?7=@;R%H?M5DX2:+(QN1B"`WH<<5^<F
MDVWAOX?QZCXANGF_MBVEN;![6:4&1Y$F9>AY#$*,GTR<<UT4*49IN5WY(PKU
M90:2LO-GV=J?[3GPRL;2*6T\0?VM<3,JQV6F0/-</G_8P,8&2<XZ>O%2/^TK
M\-1H+ZK'XA2:4/Y0TR.-OM[2=-@MSA\YXSC;[U\B>'(O#6D:)'XYN[.WLKRZ
MA:60QD[0S'D1J3P3C''J:NV[>%K8K\0+J-[*6\A4*UQU&00"%7/S,H'KQZ<U
MI*E23:49=O5]C-5:C2;:[_+N?0[?MA>`;&=;?6K'Q#HTS)YBK>6/WAG`QL9C
M^E/_`.&ROA/_`-!6_P#_```D_P`*\=UE-'>R^U:Q'9-:1?-YEVBE4SQ_%TKF
M]9T_P3X2M$OKG1[`"3(C2*V61Y.,G:N.0!R3V%*FJ$K)P=_)_P#`'-UHW:DK
M>:/5/$_[<V@03BT\)^&=2UJX>01QO.?(23/]T`,Q.>,8%<SX/TGQS^UW>3W/
MC>_&C>"M$O#$^EV$1B>:X"@E#NR<J&7+-G&[@#)QQWBSPWJGC#5?!NC>$H[<
MZO/=M=6H;"Q*L<9<NQQ@*./KD#O7V)\&/AO-\,?![:=?7_V_6+^Y?4-0N`,(
MT[JJD(.RA451ZXS@9P-G4ITJ2G2C:3^;,5"I5J.%1WBODCC+KP5X5_9HUJR^
M)?AFWETS2K4PZ;K.GI,SQ7%I-(D?F?.21(CE'SGD*<\G-?9".LB*Z,&1AD,I
MR"/6OC;]L#Q$N@?`W6(0VV;5IX+"/C.27\QA_P!\1O7T[\*K;4K/X8^#+?6&
MW:K#H]HER<8_>"%0W&!WKT\LJ3G1O-WU//S&$(5;05M#KJ***]$X`HHHH`**
M**`"BBB@`HHHH`***\G^(W[0W@[X>74FEFY?5_$2C_D%Z=B1XSR/WK_=B&1_
M$<^@-`';^._%-KX(\%Z_XBO)HXH-+LI;G=(0`65257D@$DX`&1DD"OD?]C*V
M7_A3S:F[F6]U75+FYN97Y9GR%Y/4\+GGU->"?M&>.O&7Q)T6]U7Q/KDD>GP.
MAM-"T[Y+.`EE&6)^:5N^YL')XP.*R_V:_'WB?X2P7VLW5G/>?#TW0M]82`;Y
M--E(79.4ZJ#D#/1@".H%<>/H3K47&&ZU.K!XB%"JI5'9/3[S]%**HZ-K6G>(
M=,MM3TF]@O=/N5WQ7%NX=''L1[\>Q%7J^5:MHSZ9.^J"N0L_A5X)L-2OM2M_
M"ND+J-^\CW%TUJK2N9,[_G()&[)SC&<UU]%-2:V8G%/='AMS^R7\,Y+74(X-
M*N(Y;BWFAMVENY9DLV=2`\:,V,KD$9ST%<4G[&ZZGX=ET_Q'XSNM0N+:V\G3
M!;VPMX+9PN%=U!)D/0=1QGUKZGKB?B;X*UGQSHL-AHOC#4O"]Q'+YINM/4%I
M.,!6Y4[><X##MZ5T4\35NDY_-ZV.>>'IV=H_):7/'/\`AE>Z\4Z%>6?C/7H6
MG$12Q32HV6*&;;A9GW'+D$GY.!C/.3QL>%_AYX7^"!N?$WQ`\5:?>7\D/V*U
MDN8A##!`0`R10EF+.^/F(R2..!G.)>_!WX^6]RD6F_&*&>R7CS+J`QRA<\<!
M'R<>K=?SK2\+_LO2W'BVV\6?$CQ;>>+=9LG5K6)T\NW3:<KE3G(!YVC:,]<Y
MK>\5&TJBMV2U_+0R2DY7C3=^[>GYZGH/P^^#'A'P)J;ZYHD5^TT\)CMEO9W<
M64#D,8HE?E!P.&RW&,]J])HK@/C+\3++X4>`=2U^X=#=A3#8PM_RVN&!V+CN
M!C<?937'[]6:6[9U>[2BWLD>>ZCX9;]H;]HK3=!(,O@?X=[;O56/,5S>L05M
M\=S@`'T`D'!(S]JU\T?L3Z[X1O/A-;V>CZ_!J7BF>634M>1_DN1=2MEBRGD@
M#:H;D''7G%?2]?6T*2HTU370^8K575FYOJ%%%%:F04444`%%%%`!1110`5G:
M]KVF>%](O-7UF^@L=,LXS+/<3N%1%`R23_2H/%7BK1_!/A^_U_7[^&PTFPC,
MD]Q*<!1V`[DDX``Y)(`YK\\/B9\2=6_:'UV+4M4BELO`EFY?2=%<X-QV%S.!
MU8CHO0`\9R2P!W'Q6_:AUCXO1'1?AS/?:#X38;;S6W7RKR[X&8X!UC4'(+]3
MVP.OEVDZ/9:'9I:6%NL,"\X'5CW)/4GW-7$18U"HH51T"C`IU`'F_P`:G<^%
M[2W1=S7%ZB#G'.UB/Y5U:^-9_A+XMT_Q*MG]MT#5%&F:_IVP.MW`0<$J>"X!
M;&?IT)KE?C*ZQZ+H[N0%748R2>PVO7;ZQ;276G.;?_CZA*W%NW'$L;!T//\`
MM*/PIQ;B[HSJTXU8.$E=,]?7PS?_``BTP>//@^_]O_#J_3[;?>&1*7*@@YFM
M7Y((&-R')^7OC"^P?#SXF^&OBCHB:KX<U!+B/I+`^%FMV_NR)G*G]#V)KQ?0
M]>E^`%KIGBG2FN-1^"OBAENI+1(R\GAR67#97&<P[B05[$8^]][OO&'P1T/Q
MG);^.OAUJT?ASQ9+%YUMJ^ED&VOU;D"9!\LBM_>QGGG=@"LL=E,,5>=/W9_@
MSSLLXBG@;4L3>5-[2ZKR?FNO],]9HKY6\!?MD:6NHS^'_B#;1V&H64S6LFKZ
M>&ELIG5BI8C&Y`2.P(^E?3VF:I9:S807^G7<%W97"AXIX'#HZGN".#7R=;#U
M*+M-6/OZ.(IUH\U-W+=%%%8FP4444`-=UC1G=@J*,EF.`!ZU^;WQP^.5A\2?
MBQ:M<H\_@O0Y&@MH>JRMT:<KWR0,#^Z!ZD5]&_'GXNQ^)+B]^%/@RZ:37;P>
M7JNH1-^ZT^W!'FKN'5R/D('3<1D'I\M>,O@>F@^%?%VH6)FG;P[-I\QF;):2
MVN1*C$@<#;+$,$#HYR3@5[.#HK"TEC*ZLFU%>LFDOO;2/G<QS.C+$+`0E[UN
M9KR1TEWX%MS=V?B/P??MHFMVY6>TN[)BB;NH/R],^H]>0:^J?@-^V(U]J%GX
M)^*\<>D^)6*PVNKA=MK?G@#<1PCDGKPAZ?*>#\C_``IOKVUT:RL+]D>WN$,M
MA,AR"H)WQ'CAE.3],XZ5VNO>']/\26#V6HP"6(\J>C(?53V->Z<)^HM%?GI\
M&/VD_%/P4GTSPOX[+:O\/XF\B'6@K/<V*L0(P_.6C7!!&"0&&"<!:_0+3]0M
M-5L;:^L;F&ZLKJ-989X7#I(C#(96'!!!SF@"S1110`4444`%5=2U*ST;3[K4
M-0N8K6QM(VFGGF<*D:*,EF)X``%6B0!D\"OS^_:/^+EQ\;/$\_@O0;AE^'FB
M7.W4+R&0C^U;E.L:D<-$C=^A(R#]TT`<W\5_BQ>?M)^(8IC;RVGPXTB8MIUG
M)P^HRCCSY1Z#D!>V?7-454*`J@`#@`=J9;V\5K!'!!&L<,:A41!@*!T`%24`
M%%%%`'G7QILGNO!ZRH&(M;E)&P.@(9<G_OH5WFG7<=_I]K=1$&.>)9%P<\$9
MIUY:0W]K-:W$:R03(4=&'!!ZUY?H.KW/P^\4#PMJ4QET>Y.ZQGD/,88G`)],
M\'WYZ&@#[(_9KU&VUSP?XH\#:K$ES#IETX$$HRDEE=`N%YZ@/YR^P`KS;QCH
M_CK]DI-7OO!D<NN?#+4(G#6=S*S2:1.RX$@8#A=Q!S@@]&P<,:'PQ\1R^#_C
M/X6N@";+7E?1+K'8M^\A;\'4CZ,?Q^@OVG_^2">.?^O-?_1B5WTWSTK]4?(X
MN+P^/]FU>%1JZ?F_SN<]^RUX#T-/V?-#@O-/M+Y=>66\OQ<0AQ<,TC`;PV<[
M5"K^&>,UY+\:OACXJ_9WN)_'OPGU&XM/#!<-J6BY,L-N20-XC;(:,]#_`!+G
M@X^[UG[)_BN;PEX1\/\`A;6+M)-+U.);C2[EAM,,TO[QK9A[EF96[G*]2N?J
M6]L[?4;.XL[N&.>UN(VBEAD4,LB,,,I!Z@@D8K^:\SQ^:<+\15IU[N,Y.3B_
MAG"3NO*Z6B?1JVVA]_A*U'&4%.A+;2ZZ-;GQGH'[6'CVT6-O$WPOGN+;`+W6
MD,X&#T94(<-P1_&.YSVKT+2/VO\`X6ZC.8+O4[[29AU74+*1<<9ZH&`_&N2U
MOP3JOPE\30:+-,EQX.U%Y(M$F))FMRJA_L\I/7Y2X3_9AYYJMXCTJVU;0]1M
M9XHW6:"1<LH.TE2`1GN/6OW;+L%EN<X.&.P,WRR7X]4^S1\CB>,,?EF*>%QE
M)/LT[:=SM=?_`&POA5HD,K6^L76JSH`5AL;20E\^C.%7\R*XG2_C)X[^/GB;
M3_"7A_3I?`^AZE%+.^KSEI+R:WC*[O)^4*C$.OKUR&]>,\%?$OX`R_`+3_#?
MC#3[=O$5I:2P21)IC-=^:7)\R*X"$*3D')<=,$8X)^SI\1;6T\.Z-JMQ)^_\
M+.T=TH;!^S%2"V`>0(VSS_%&.XKYVA&OB\+C8X?#SIUJ2DH.:TFU>SCI9WMV
M:U6K/HLRSBKAG2DVN24DI6Z)]?OW/0OC'\%?#OP8\":!XF\)V30RZ!J<3ZK>
MRL9+B[M9CY<AD;^+YF0XP`.2`*L>'-.M-?\`$\NBSR1FP\7:)>:0Q/(9]HEB
M8'V43$?7Z5]%^.O#EKX^\!Z[H;N'MM7L)(4D3YOO(=CCUP<$?2OC7X8^*TL?
M!O@_Q%>-L?P]=PK=$L`8DC?R9B<\?ZIG/X\8.*^<X+S'$YYP[F&7UIN56%Y1
M;U=W[T?_`":)Y&>T8X3,L)CHJR;Y'Z/3]6>%Z)-<V?PVU%"?)U3PYJ&]03G8
MRL,@X/(.YUKU7PQKB>)-!LM4C0H+A"64_P`+`E6'TR#7!?%N2#1O&'Q9TJUD
M_?:GXA:.(,PZM(SOVZ<D>V173:!=6'A.33?"4K,DZVX>&9QA+AB3O`]#G)Q[
MU^F8.O\`6,/3KVMS13^]7/3DK-HZJ>"*YA>&:-)(G&UD<95AZ$&O1_@'\:9_
M@WJ=GX3\070?X>7TWEVEW._.BRL20C-W@9NY^X3Z9KSRHKBWANX)()XTEAE4
MJZ.,A@>H(KH$?ILK*ZAE(96&00<@BEKXU_9:^.#^'M8MOA-XLO0T1CSX<OYB
M!OB''V5V.,NO\'J./[H/V50`4444`?(_[9_[0<O@K1)_`GA>:5O$-]`)=4N;
M8_/IUB2`2"#\LCY`'7"Y/<&OG30H-/M]'LTTI473_+!BV="IYS]3WK&U;P;J
MWPZ^,?C;PEXQN'U'4-4/VJ#4+@[FU"!BV&)]2IY`Z%6':N>T^XN/AC?C3K]W
MF\,74G^BW9Y^RL?X']![_CZX`/2ZQ]?UV+14M%)3SKJ944,>`@YD<^RH&/Y5
MJQ2QSQ)+$ZO$X#*ZG(8'H0:\>\<WDFM>/?["MG;SI8([+.,B)7.^5Q[[`H^A
M-`';>%O%MWXKU6[EM;0)X>BC"QW$BD22S<9`YQM`R.G4#GM7755TW3K;2;..
MTM(Q'!'G:H[9))_4U:H`*\@TC;\2_'KZE/`D6G:*`BPO]^0[FVEAVYR3]`*]
M?KR[Q782^`O$">+=+AW6-P?+U"V7@?-_$/3GGZ_4T`=OXIDN+/2UU6R4-?Z/
M/%J=MD`CS(7$@Z_[I'XU]6?'J\3Q7^S=XIU+35,EO?:.E]%R/]4=DF?3A<FO
MF*RO+76=.BN;=UFM+F/*GLRFOI_]G:]C\1?!FPTC4%%S_9?GZ+<))\P>.-BJ
M@YZ@Q%/S_"NO"N_-#N?/Y['D]EB+?"_^#^A\[?#8V_B3X6:#',N86M%@.PD%
M6C.P,#U#`ID$=",BOISX,_$&;Q/87F@ZQ.'\2Z)M69SP;N!L^5<8]2`5;'`=
M3T!`KYF\+^'C\+O&?BGX<W!8)9W!U#3'?_EO9RXVX]2I!!]\^E;/B#Q)-\/+
MS3O'EG"TL^AR`7,28S<6<A"RQ\D>H<?[2"OG.-^%X<0Y2U!?OJ:O%^:WCZ2_
M.S/'R;,Y99FTJ+?[JJ__`$K6+_&S_P"`?47Q/\$0_$'P3JFB,1'=NGG65R/O
M6UTGS12`]L,!G'4$CO7Q_P#"JP\1_M%7$.GW%G=Z)X4LE\O7KQ!L>YF'6VA.
M<J#_`!=P#@]MWH_C/XT:G\=KY?A_\'KBX1+D`ZOXC>(I%:6K*I/EMG=O.67H
M#E2!_>'T)X%\$:/\._"VG^'-#MQ#I]DFT$@;Y&_B=R`,LQY)KYWPMR?,LNP-
M5XR\(5&G&+W7=OM?33?0][BK$X5SARI2J1V?;^NGWF(NB_#KX0^%HHI;;0]!
MT*V.U7N=B@L?5GY=C[DDUS7BGX)?#[XJ:=_;FB_9+*^O(72'6]%V$3*V0P<+
M\DRGD$,"?<&F_'_X'2?&;3=(^R:P-/U+2'D>!+F$3VLN\`-OC/<`<-VR>#78
M?";X?6_PN^'NA^%;>7SC81'S9N<22LQ>1@#T!9C@>F*_4;-RY6M#Y5SC&DJL
M:CYV]5Y?J>3_``C\9:_\)+_3/A7\2PJJ`+?P_P"(5)^S7Z`?+`S'[LB@A5!Q
MD`#T+>):S8V^AK\;/#2>68].O;Z>*-0-J130^8@Z=CN_+CI7VWXR\%Z'X_T"
MXT/Q#I\=]IL^&,;Y!1AT=6'*L.Q']:^`?CIX(\9_#+Q=+H=WK4>LV'CKRK>+
M5+D9NO)MPL8C<<#<J.F6YW=>N<?)9?PQ2R?-ZV981VIU8M2C_>O=->3UNNCV
MWT]Z68O.,+'"3TJ1E%I]&D]?G:YP'A3X86OB7PHM_JD\ZZG?2-<)<JY9@#TW
M`\-D_,>_/450&F:MXJT?6M+EF:[U#PS<'[)>#[\N"0R9SG^$$?0"O8KB2#PY
MH,CH,6VG6QV@G/RHO`_(5SWPNL'M/"4%S,,7.H2/=R$]3N/!_P"^0#^->LE8
M^F$^'7C6+Q5I$4=Q,G]K0J1-'D!G`Q\X'H=P_'-='K.N6.@637=_.(HAPHZL
MY]%'4FO)/'?AK4?!6MR^+-"D6.!W^=0N3&SY#9&,%3Q^+>U7-#U&UNM5MCIL
M&I^-?&,Z%HD@@9EAXSA4`^4#O@'\*!-I*[*7Q`35-3L(_$NH2_V0EHX&FV>S
M_2&8D'<S`@J>,XYQC\3^H_[-7BGQ7XT^"WA;7?&:(-9O8"XD5=K3P[B(I6'0
M,Z`-QP<@\9P/AKQ7^SC=Z9\)_%GCWXHZK]CUZ*V#:9IMK+F*T<D!$?J&9V(7
M"D@9R23T^P_V1_C!IWQ6^$>D0QR$:YX=MX=-U&!\;MR(%24`?PN%ST'(8=LF
MY0<+<QA0Q5/$<SI.Z3M?_(]ZHHHJ#H/SD_:/USPYXM_:`\53>*['7#X9\/6=
MMHL&OZ0"XTB[/[[S'"G#?,[(0??`W8QP6MV][HF@1S^(8[?Q%X+OQLA\3Z2O
MFVDJ\<3(/F@D!.""`=P('(->P?#_`,;W%W\3ET2PE\V'Q;XIUW6;^=5!9K*'
MS(88W5AP&>,9X!PH&<DUZ#XS^`5E?74^K^"=3D\)ZY*=TZ6T8>PONORW%J?D
M<'."<=^0:X99C"G4]G55ET:_4W_LZK./MJ$KOK%[?)]/R\CX\TK2=3\/6YN/
M!]_;ZQHLGS"RN)AE#WV2#^1_4UD>`/-\3?$/7->N[/[-+;((O*W;O+DP$/..
M3A&_.N@L?@U%IOQ*UO0OB#XK'PVN[S]]IMYI]B\FF7@&2ZHWFIL'W=H)ZD@[
M3@&K\%K(1>';Z\+,\EU=M^];JZJ``?7J6ZUVQDI+FB[HQ:<7:2LSTFBBBF(*
M@O+.#4+2:UN8UDMYE*.C="#4]%`'G7@`3>%M8U+PE>.2J'[78NQ^_$3R!]"/
MSW5]7?LQZG':ZKXMT0C:UR8=4CX/S$KY4GY>7%_WUW[?,WC_`$^<65MKM@N=
M1T5_M"@?\M(_^6B'V(Y_"NM\(?$BV\$^)?"?C99F&BR2?9+YAVM;@`$G_=D6
M)B/]C%:T9\DTV<&9X=XC"SA'?=?(^J_C)\%],^+6EP,+A]*\2Z<=^G:Q`/WE
MNW]UL$;D/=<^XKR,_LO>./$@&E>+/']F_AX%?._LRQ\JYO4SEE<D[8_3Y<@]
MQVKTZ^_:@^$>GRRQ2^-]/=XQD^0DDH/&>&52#^!KDK[]M+X;6SA+:'Q!>F12
MT!AT\HMP`/X#(R_3)Q7H2E3ZO?S/CJ5'&62C3;MLW&]O1M:?TSVSPEX-T+P+
MHMMHWA[3(-/T^V0(D<0Y(!)RS'+,<DG)).2?6MVOD+4/VWKEDVZ7\.YF=@P$
ME[JB1A#CY3M5&+#/49'UYXP/"O[47Q?^)7C(^%/#^A^%;.YDC:<W$J3R"UB&
M,L[;\'J!]WDL.*GZS36B9LLEQM1\TH[]VCZA^-&E>)=;^%OB?3O!\A3Q%<VO
MEVQ601L<L-ZJQ("L4W`'(P2.17.?LX:)X\\/_#^2R^(!F&IK>RM:1W%Y]JFB
MMB%V(\F2"0=V.>F*^2/B'\>?C5HOBS6/#5IXVM;P:?,(IKNQT^"%$DP"T8+*
M3\I.T]>0:YBQ^-OQ2O=:TFQ\4_$35]/T.ZN5BGO=/6,20YR`WRJIQG&>>F>I
MQ63Q,.;FU.^&28KV+HMQLW>^M_R/T\KY._;?LEM[/X<:_P#*&L=9-N2/O[9%
M#$#MC]S_`"KQOXJ>,?B9\)?B1;>&-*^*.NWZ75BERT]Z5E*$E^`K9`X0<\'F
MO)/'_P`4?B#XO$.G^)?$,^M66ES1WP1HHT6-_NACM4'^/'_`J53$QG!QL:X+
M)*^&Q$:KDK+U_P`CT+XJW$G_``C4>G0MB?5+J*U4`\D$Y/X<8_&NQLK2.PL[
M>UB&(H(UC7Z`8%<GX@A.J^./#-EP8[-);^49YXPJ'&/[Q_G79UQ'TQ!>V4&H
MV<]I<QB2WG0HZ'N#5C]F#XBV_P`*[[Q!X''@O4=;\33WGG6MSI=O%YLMN548
MED8KM1?O`DX!D(XI*Y/6M8F^'WC?PG\0+5&(TNZ6&^"#)>V?*L.O]UF`]V'I
M1SSIIRI[F5;#4L3'V5;X6U>Q]91_#K5OB/J]IKWQ-$#06,WG:;X9M9?,L[4X
MQYD[8'GR_7Y1R`#DU'XM\"3^`-3;XC_#33;>U\3Z="1>:7;Q!8-9M1@O`R*.
M),+E&49R`#G-=CXZLO$/B#PA.O@O7(-+UF01S6MY)")HV`(;:0<C##C.#P>E
M>??#SX^6]YJ7_"(?$&W3POX[M0JR6]TX6WO,CB2&0_+\W]W/T)P:^9^LXFK/
MZQS7:Z>7IV/HZ>#PN'I+#0CRQZ>OKW/HWX6?$S1?BYX(TWQ5H4A^R7BD20R$
M>9;RKP\;@=&!_,$'H:*_+[QYXP\9_#[XD^-])^&]]J$?AQ]5>ZVZ=&9(1-)&
MA<`J"..!CL`**^DA+GBI=SPYQY9./8],_9*M[[4_B):Z_>$.MUX<O9"N,+!*
M^J,2%!.1G#].G?KS[AX=\0Z@W[2WC30GN)9-._L*SN4B=R5B=6Q\HZ#/F'/T
M%<IX&\%ZUIW]JW_ASRO^$A\&>(]:TXVES*%35+2682^4[@'RV)\ME;!P5YZ\
M<[\,/$?B9OVL?$*^,]$31=3UC1`MK:).)D6*,H5VR*,/G9(2>.01Z"O!Q$>>
MI4?9/\SVJ$N2G37=K\CU3]H+P]X=\>?"7Q;%=SV4LVC6\MS%/YBEK2XC0L`3
MSM)^Z1P2&QWKY)^$R1IX#TPIC<QE+X/?S&'\@*ZC]LKX97GA&^D\8Z#=7D&C
M>))1#K%I%*PB-R`2CLH."&`/4<,"?XJX7X*WR7'A)[<<26MPZL/4-A@?U/Y5
MWY9!1HW4KI_@<683<JMFK-?B>CT445Z)P!1110`A`8$$`@\$'O7F5WI/V.S\
M1^$'`^S7,$E]I@[``Y:,?[K@$#T.:].KF?&]C*^F1ZI9H6U#27^U0@=74<.G
MT9<_D*`/)M'L+";2(&CMH@)H<.P`W'(P>>OK4$ERT7A#POJ)3C3+N>RE<+U5
MCD'/TS6I\/O#&D>+9-6\V^OECM9SY5O#-L3RF)(/3/7->HZ5X)T72-*DTR.T
M6>SDE\YDN<29?CGGZ"@#R<^(=,R0+M&([("Q_0<UK^!?&WB+X<^.U\6^'M#O
M-0A:V:VNH7MI$26,X)&[&1RJG./X1UKUJWL;6T55M[:&%5Z".,+C\JL4`>-:
M_KW@G6;S4->OO#?C30-0OIY)YX=.N8_LK2.<_*7C!4%B>.?;TK1\&:YIEAJW
MVO1OAUJ.LZ_8H&#^(]362"V9N4D\D1QC/<`D],C!YK<^)<Q>UT/3XR/.O=3@
M0*>Z@Y/X9VT[P/*UUK?C"X(78=0\H,O0[%Q_+'YT`<;X@T+XB:]XLO\`Q1JE
MK;:AJM\3OVS(JH,``*"1@```>U+;>&-1T?PCXRU#7K>&"XO856./S%?:%Z="
M1U*XYSD5[/7(_$__`)$36/\`<3_T8M`#]!N8]6\4:QJ$>XQPV]O:H3V)!D8>
MF?G7/TKJZ\[^#1>?PS=7<K,TUQ>.SL>^%45Z)0`5F>(M,76="U&P9`_VB%E4
M'^]CY3^!P?PK3K%\0>*-,\.6<\]Y=PK)&I*P[QO=L9"@=>>/SH`]-\%_':?P
MQ^R59^)T>WNM;T@+I,44YW*9%D"1A@,'B(JV,]!7I'QL\+:)X^^">L:QKVB0
MMJ5CH<^I6K2*1-9SBW,F`W!`#`97H<<BO@/2IK\_#1+/48Y/[+UGQ/:W%IN`
M"2M%%,ER5'7_`);P#(X[=17Z(_M`ZS!X;^"?C*1MBB?3I+")"?O-,/)4#U/S
MY_"OG\115*K'DW<G^FA[E"JZM*7/LHK]=3I?V/O`NG>%?V?O"12T@-SJ\1U2
MYDQN,CRG*DDCJ(Q&N/\`9[]:*]/^%GAE_!GPU\(^'Y`1-IFEVUM("2<.L:AN
MO^UFBOH#PSQ2_D_X0+]HG7](N8S%IWCRVCU;3I>B-=P1B*XBZ_>*+')VX!KR
M#]IW0-:N/BE\)M0\&2Q1>-9I[BWM`[[1+L"NJL?[IW.ISP0Y!.*^L/C'\%M!
M^-.BV-CJUS?6%[ID_P!JL-2TZ01W%K)C!*L0>#QD>PY!`-8/P[_9UTOP7XP_
MX3#5_$.L^*_$L-N;6SO-7=#]CC/WA&J@`,<D%NN"1W.>"6"OB/;)Z=5\K';'
M%VH>Q:UZ/\3YM\2I\7_V@='T[X=ZC\,=2\+K>7<9UG6+M6%K'!$ZL3$6'))&
M0`6S@`$@DCF?'W[(7CCX*:N-7^':W7B[PS.N+FP.T7D>`3DJ``_'1E&<G!7H
M3^CU%=5*C"C'E@K(YJM6=5\TW=GY1V7C[37NS8:I%<Z)J:@%K34XC`X!Z'YO
M48/XUU*LKJ&4AE(R"#D&OT)\:?#/P?\`$6V2W\5>'--U=$(*-=0!G3']U_O+
M^![U\Y^/OV'/!%KX>UW4?!-YXAT37(;2>6S@MM09X'E"EDC8.&8KD;>&!P>]
M:F9X'17E?@M_&VL:%9ZI!KUI-'(77[/>V^0`&(R77YB>*Z;S?'4?RFVT"7'\
M8DE3/X8.*`.NI"`P((!!X(/>N-GF\?,H$-KX?C;/):25OZ"JO]G?$*_9O.UC
M2M.3M]E@\PGC_;']:`.:\#6Q\*_$[6M#"XM[A"T6!V&'7\E)'U%>Q5RWAGP7
M'H=T^HWE[<:CK$L?ER74[9POHH["NIH`****`.=U_P`/3:OK7AZ]26-(M-F>
M60-G<P*\8X]0.N.*N>']$70;.:$2"62>XEN))`NW<SL3TR>@P/PK6HH`*IZK
MIL&L:;=6%R"8+F,QMCJ`>X]QUJY10!Y?IO@OQMX:M!8Z+KNGFR5V*K<18*Y.
M?[K=:J:A+\2[75='TA;_`$^:]UJ[CL+18%7+RR,%4?,HQRPY]Z];IW@#3EU7
M]I/X1VTCLL:75U<_+_>BA,@_5`/QH`[CP_\`L+_$?68(I/%GQ-@T\R@>=:Z;
M`TQ"\?+NS&`<9R0",^O6N3^(G[/W@S]F7XB^"];UNVU?Q7X3U&&XCN#<PI.5
MOE4%`8PH!5LG"L3R#GIS^DE->-)-NY5;:=PR,X/K4SBIQ<7U*C+EDI+H?'/Q
M*_9RO_BE\/\`5/%*:/+IOB"QTY?^$7T!?+C-HH>.9FD5<KY[[739DJH('WLD
M;O@+POXK^.FI>'-3\<^&K_PMX?\`#%Q%>2:5?QE9=5U!`"K;6`Q;H3GG.XG'
M8U]5T5DL-37+I\.QH\14?-K\6X4445N8A1110`4444`%!&1@]***`/S:\9>!
M'^%7Q,\4^$_+VZ?-.=7TM^@>UG8G:/\`KFX9#^![U2KZ<_;#\()-X;T3QU#&
M!/X<N#!>.`,FSG(5LGT601-[#=ZFOF.@`HJ.>>.V@DGF=4AB4N[L<!5`R2:P
M/`?AKQW^T/XBDTKP+&^E^&[<[;S7KF,JD?3(![N01A!\QZDJ,D`&MJ&L:?I2
M[KZ^MK8$9'G2!21[`]:YRX^*/A2W&3JROSC$<3M_(5]>^`?V"_AEX9_TGQ)]
MN\6:D6#F2_E:*$'.>(T(SSUWLV:]_P##OPY\'>$1_P`2#PIH>E'N;&PBA)X`
M.2J@DX`Z^E`'YJV/BE-8\L:1HOB#5'D3S%6QTJ>0E/[WW>1R.?>K_P!HU[_H
M0O&__@AN/_B:_4``*````.`!2T`?EL;_`,1"7:?ASXZ\O/\`K/[#FQCUZ9J`
M>,M(2!9KN>2P5C@"^A>`D^@W@9_#-?JA3'B24`.BL!TW#-`'Y:V_C'P_=2".
M'6K!G/0>>HS^M;2L&`92"#R".]?;OC7]FGX4>/E<ZQX(TI;EL_Z58Q?9)LXP
M"7BVEL#INR.!Q7Q5\7/@-JG[-7B*RU/3=2FU#X;ZQ=BS5;A\RZ?*PRH?H,'#
M888R!@@'&0""NJ^!/_)RO@7_`*\=2_\`1(KE:[+]G&PBO/VF](FD+![+0+N>
M/:>"Q=(^?;$A_'%`'Z`4444`%%%%`!1110`4444`%%%%`!137=8T9W8*BC)9
MC@`>M>->)?VL?@[X4OGLK[QO9S7*,5=;"&6\"$=06A1@/SH`]2\3>'[/Q7X=
MU;0M00/8ZI:RVDR^J.I4_C@U^7'AK78K.WET/6+RWM]=TBXETZY@ED".9(6*
MD[3@]%].N:^RK#]NKX,WERT,VL:G91CI/<Z9-L;G&/D#$>O(`XKX`\7^+_`^
MM?''X@ZQ<6T4^@ZGJ=Q+9W'E%T;,A/F8'.'Y;IGYN<<T`=UXLUG34\,ZNC:A
M:!I+29$!F7+,4.`.>3[5]C?L*:=]A_9QT"0VXB:\NKN<MMP9?WS*&]^$`S_L
MU^=?BS7?A^="NH]&L;>3495V1E+9D\O/\66`Z5^GO[)AT\?L[^`H].FBEB2Q
M_>^7)OV3%V:13Z$,QX[4`>T4444`%%%%`!1110`5\V?MW1))^SAK[.BLT=W9
MLA(R5/GJ,CT."1^)KZ3KXY_X*!?$S2=-^',?P^B?[1XCUN6&Z-M&"6@MXWW>
M8V/[S)M`[_,>U`'SCX=\5Z;J>B65S)J5GYYMT>=3,H*-MYR,\<YZUZ/^REJU
MKJW[44S6=S'<00^&9DWQ2!TW>=&3@@X[C\J^8-'\0I9:+:VK>!+.YN84"&XG
M5,R'U(*9Z>]3>"OBQXM^%GBW6?$^C:;;6FJ7NF2Z?$RP?N[)'*8D11QN79QN
MR,\D'I0!^TU%?C;:?'SXX77VJ>'QKK^Z]D,KR-<[>N.$!X1?E'"@#KZFO>?#
M7[=?Q3TA,:]X6T+68L#'V>1[:5<8SD[F![]NM`'Z,T5X7\)OVL/A_P#%-H+`
MW<GA_P`12`#^RM7Q$SMZ12?=D]@"&_V17NE`!1110`4444`%>2?'+]H+PU\$
M-(B:_D6]\07ORV.DQ2*))3_?<_P1@]6(]@">*];KX,_:D_93\9Z]\3-0^('@
M_3;;Q)::HD0NM*N9P)H9%4(3'OP-F%4\-D$MQC%`'CWQ)^.OCOXM((?$>II!
MIFT*=*TS?#:-[N"Q:0G_`&B0.P%><10QP($BC5$'`51@"M?7=,O_``,%B\7>
M!M<\.IO`$L]JX@+$9`$@P&.#G`KF=0U'PK<1G_B>WT8?H(2V5_\`'?YT`:)Q
MCG&/>N-\6V]E<R6\L$J-=%@C11$%G7V`[UNZ!X#B\<WC6?A33O%/B2\'S-%9
MP[E'J6;;\H]SZU[+X3_8U^,^H8-IH&C^%8I,?O\`4+U9)@.0>4\QATZ8'4>]
M`'B%E!?+;Q0VOAFZ=D79ON$6(GCOD5]&_L/^*]?\*_&]_!R1.-$U^QDN;JR6
M7='9RHA990.@)V[#C^^.N!4DO[%WQWL#]CM];\-W4+$'[5]K<E<]1\\0/'TK
MZN_9P_9HTWX%6E[J5W?G6/&.K1A+[467"(N[=Y<0(R%SM))Y8J#@8``![S11
M10`4444`%%%%`!7Y&?'^_O\`3?V@?B%<>+0]KJ$U[BV5]SC[(!B$J0/NF,)^
M7KFOUSKYS_:F_9MO/C?%H&K>&KO3M.\6Z1(8A=7P81S6K9)C8JK$X;E001\S
M^M`'YN?\)+8,#Y#37#XSLBA8G'Y5&WB:S4A;B"Z@1OXIH2%-?6EM^P[\4M6F
MCM=8\:>&M,TX@"2;2TGEF/(SA65!TS_$.@'>NUO/^"=GA+[%MT[QUXJMK\KA
MIIGBDC/'/R*JG&?]K_&@#XACUO39%RM];@?[4@7^=.;6M.12QO[;`])03^E?
M24G_``3@\4F[:X_X3W2)'W9#26+G=[D$D?SK4MO^"?7C-FCAG^(^EP6A.&:W
MTLEE'^R,KG\Q0!\B:AKMA?Q&V@MWOY7X5%0@9]<]OJ*^T_V&/CUXI\2ZY<?#
M3Q!-'J=EINFM=6-]YF^6W1'1?(9_^6@Q(,'.1MQDC&.CT;_@GKX4CNXV\1>,
M_$.LV2KS:+MMT9_7(W$#KP,'W]?H_P"&OPC\&_"+2IM.\'Z)#IT,[;YI`S22
MS')QOD8EFQDX!/':@#MJ***`"BBB@`HHHH`H:O\`\>9_WA7Y.?MA?\C^W_7Y
M??\`HT444`?H1^RY_P`DOM_^NQ_]!6O:J**`"BBB@`HHHH`****`"BBB@`HH
5HH`****`"BBB@`HHHH`****`/__9
`
end

--=====================_391535838==_
Content-Type: image/jpeg; name="19.jpg";
 x-mac-type="4A504547"; x-mac-creator="4A565752"
Content-Transfer-Encoding: x-uuencode
Content-Disposition: attachment; filename="19.jpg"


begin 600 19.jpg
M_]C_X``02D9)1@`!`0```0`!``#_VP!#``0#`P0#`P0$!`0%!00%!PL'!P8&
M!PX*"@@+$`X1$1`.$`\2%!H6$A,8$P\0%A\7&!L;'1T=$18@(A\<(AH<'1S_
MVP!#`04%!0<&!PT'!PT<$A`2'!P<'!P<'!P<'!P<'!P<'!P<'!P<'!P<'!P<
M'!P<'!P<'!P<'!P<'!P<'!P<'!P<'!S_P``1"`#=`.0#`2(``A$!`Q$!_\0`
M'P```04!`0$!`0$```````````$"`P0%!@<("0H+_\0`M1```@$#`P($`P4%
M!`0```%]`0(#``01!1(A,4$&$U%A!R)Q%#*!D:$((T*QP152T?`D,V)R@@D*
M%A<8&1HE)B<H*2HT-38W.#DZ0T1%1D=(24I35%565UA96F-D969G:&EJ<W1U
M=G=X>7J#A(6&AXB)BI*3E)66EYB9FJ*CI*6FIZBIJK*SM+6VM[BYNL+#Q,7&
MQ\C)RM+3U-76U]C9VN'BX^3EYN?HZ>KQ\O/T]?;W^/GZ_\0`'P$``P$!`0$!
M`0$!`0````````$"`P0%!@<("0H+_\0`M1$``@$"!`0#!`<%!`0``0)W``$"
M`Q$$!2$Q!A)!40=A<1,B,H$(%$*1H;'!"2,S4O`58G+1"A8D-.$E\1<8&1HF
M)R@I*C4V-S@Y.D-$149'2$E*4U155E=865IC9&5F9VAI:G-T=79W>'EZ@H.$
MA8:'B(F*DI.4E9:7F)F:HJ.DI::GJ*FJLK.TM;:WN+FZPL/$Q<;'R,G*TM/4
MU=;7V-G:XN/DY>;GZ.GJ\O/T]?;W^/GZ_]H`#`,!``(1`Q$`/P#[^HHHH`**
M**`"BBB@`HHHH`****`"BBB@`HJ.XN(K2"6>XE2*")2\DDC!510,DDG@`#O7
MQ/\`M`_M#ZIXVDMO"GP_U6>ST35"T`O].B:74-7.<,MH@QLB&"#*Q4'G!V\L
M-VU9G4JQIVYNNW5OT74]+^+O[7OAOP5JTOACPHL7B#Q5&62<HLLEG8D`Y$C0
MJ[N^1C8@/0[F3'/D4WBOQ]\3["*\O?B?JMM82$AK70+4:9M8-@J6(,HQTPQS
MWKR#0O@UXOTK2T73?A1XBG\WEGN_$Z6C$\_-Y:.N"?0CL/QUK9]>\'SV\.KV
MWC;PM'$^&DU.,:II[JIY4S`$J,+U5@`.<XY.4:].3LI)_,\'-UFLH.6'A."7
M6R=_NO(V[SX%>';V:*[EU#7VU6(8346U*1K@#GHQR!]X]`.ON:[7PWXZ^+GP
MEMX8M*UA/'&@08SINN-MO40=HKD=?^!@XQP.U:%AJ-IJMI'=V-U#=6LHRDT+
MAT8>Q%6:U/B*&?YAAYW=1ONI:_\`!7R/HOX1?&3P]\9-!FU#1_/M+^RD\C4-
M*O%"75E+_==?0X.&'!]B"!Z'7PAJ^E:E8:G;^*?"5R--\7Z>0T,ZG:EV@.3;
MSC^.-AD<_=)R,5]>?"WXC6'Q2\'6>OV43VTS%H+VRE_UEG<IQ)"WNIZ'N"#W
MH/T+*,WI9E3<HZ26Z_7T.SHHHH/7"BBB@`HHHH`****`"BBB@`HHHH`****`
M"BBB@`HHHH`****`"BBO-OCU\4&^#WPOUGQ3!:QW>H0>7!96TA.V6>1PB`XY
M(&2Q`Y(4CCK0!YO^V7XL?2O`.E^&XKB2,>(KPI=Q0G$ES:1+N>!.<YED:"+@
M'B0@]:^6?"/B[6_AS:7_`(MLK/0[J^D<QS^>K;[B-#M%G:LIQ%$I4[,!C(0&
M.`0!]&6'[/S^/8-+USXR:U?^)O$D0,RVJ7!MK/3V;!,<2P[3QA?FSR4!^OD'
MCGP3X"^#$/A[XA>!_$&I)IT>LII%W(TYN[:*"59%FDA+(Q+IMSE"W*D>M<N+
MI3JPM%^J[^1M@_94Z[K5%=VLO+S_`,_1'T)K'CQ=/^%]]XU%C<0&#2GU$6=Y
M$4D1A&6$;KP00>#7E7AC]IAH8[)_&FG:;:6ET8P=1TF]\^&#>.#(C`,JYZLI
M8#([`FJNL_M&^%K[X+3&U\0Z9?\`C*?18D.GGEGNY$1&7:WWL.Y)&3P#Z5Z#
MX0_9-^%F@:%9VUYX5MM2U#R4%S=WKO(\L@'S-@MA<DGA0.U>3A<![5/G5K/^
MNQ[%?'*E;EUNN_\`P_Z%;QW\-HFL+KQ+X&MK6#72IN6MH`%MM5&,[7"G`<C[
ML@YSC.1Q7">%?$]GXMT>+4;0/&23'-;RC$MO*O#1NO9@>,5Z'>?`3P[':WL/
MPT\2ZEX3UFS?=MT[4I+BU20DD+-;.[)CD\8&,\>A^=M(\4O?6"_%*>.&"=+]
MM!\7QV0_T<R`@07R@$^J(Q[[L@5Z-"%3#6A4E>+V?8^(XGR>CF=*6*P\.6K%
M7=OM)?J>P5J?!_Q2?`WQD@T=RJZ/XXB=-HX$>H0)N5_^VD65/<F-*\Z35KW1
M-4@T^0">RGU#:L[G)2":-VCYSVE4QC/;;W-9GCV^NM.^(?P@N+&-I;M/$]ML
MC7.7RR@C`YZ$UWGPW#_/A\QI)/25_FK/_AS]$J***#]2"BBB@`HHHH`****`
M"BBB@`HHHH`****`"BBB@`HHHH`****`"OG?]M>U!^!MQJIBFE_L/5+'4=D9
M`R%F"'/'3$A_'%?1%8OB_0M,\3^%M8T?6;(WNE7UK)#<6RKN:1"IR%`YW>F.
M0<$<T`?-OB2V\:?$#QG=Z-;W22Z!;L&=5BDATQ(SG:LT@(DO)3@$Q1M'$N<.
MS=&\Y_:MU/1IM1^&GPMUC4)H])EE.H:D]E;9F\J)&2)(XHU.-Y\Q5`4XP/0Y
MX#X?>./B%#JSZ9X5^)D-OX1#%--L=9$%[J,,``V(Z;<*X`VE=_RD$8->FQ6-
MM::G+JFHWAO=>U%PDNH7A7SICCA%P`%4!3A%``P>.II-75CY_,>(\/@GRP7/
M/MK;YO\`R/&/''ACX#6W@^\O_!\MQIWBC1)K:;R-2EN(9IT$R"0B*;[YV[N$
M'!'0"OL3Q;:>(O&&G/<;]1CT"8J+;2M"N8X[G4E)W!IKHD"&)E`XC8-@_?).
MVO&O%G@[1_&VE2:=K%HD\1!V/CYX6(QN1NQ_R:X#0[WXN_">6WTBR\;:A-X+
MC'E6TL>E)J<MF@QM5HF*N%`&/D+``<*.E94Z?LHM.3?KJQY?Q1A\QDH5$J<^
MU]'\_P#,^J[:\?X0?#G6==\1_P!DV=GID$D\6F:4GE6UNH'RPJ[#=+(S8!<@
M9+<*O.?R]TW7O'G@?PUJ*6T.H6/AKQ-"1,+BSW6UVARN5+J1GDX9>>GM7U@F
MG>#?'=[:7GQ.^.A\1VMK)O&AW*C2HBX^[OMB0V1DC[H)SC/4'I_BC\>_#$^A
M6'@[POH5WK46NLNF0B.Q\NW13@!8DE4"0XP%P-BY!SQM/-4Q7-)0A"ZZW5DO
MO/J8THTX<\YI/HDTV_2S/#OA5J?BGXMS)::;)8Z:NE6%@;[6=28F*(V\LQC(
M3(W,Y=1UQ\K>U>M:9H]KI/Q;^&GBS7?%NC>,O"=AJALEN=)C1#8WTZ8@:14>
M3<N]4QR"#@GC@]+/\);"UM/`7@*X73UTSS)=;\26\1"K<>4H$:GH3$)'5!G^
M&,#M7*>`/`OAN['PL\+Z)IP&N:OJYU*[N+,LB-IMC>32)/)GKD;41F&2'QGH
M#E#%RJ55R/2^UNFNK?R_(PIY+A,-'VGLDIJ[OU3LM%]]C]"****]0@****`"
MBBB@`HHHH`****`"BBB@`HHHH`****`"BBB@`HHHH`****`/SX\"74UMK_CW
M1+J5YI++Q%J3PSRG+SQFZE4LQ[MO1\_4>M2^-O"-QK=Q:7NG^4+F/`E5V*[P
MF7CP1T(?*Y[+*^.<5F^/PW@;]ICQ+I6IO+:V=S=?VIIMSY>(#'=@&:-R!P&E
M&0>F^/G[QSZ-0?EN>0J8/,9U(Z<VOEK_`%?U."\"^$M=T$LNHZS/-:1LHBB+
M;F<*A12Q.0,J5#*/XHPP/)KO:*CGD:*&21(FE=5)6-"`7('09(&3[D"@\2M6
ME7GSSM=_(X_Q(;F%9+^=],T4Y6!+[R1=74F3\J("``Q.,#Y\GM7+_L[^$H;[
MXS>,O%?B"ZO)/^$3MU\HZE<I<20M*K$L[(-H*HK_`"J,*6QG*U)K@UFU>"_O
M((;[QG?NRZ3IV[=;:6H&&E)Z$J#EI".20JX!Y\T^&7BJ^\$>(];L-/U5H].\
M2*R7.O!CYUS);!Y)GC.?D4F1AO(/"\88Y')CF_82L_ZZ_A<_1.":'^U7T>GR
MWMOVOI=[N_+HG?T/P=I^D>*_&_B*VTQ;_P`9MJLZ21>']-NY+B.=$)V2:C>R
M@*L8+$B-25!'(;C/VG\'O@_/X)O-0\4>);NWU'QOJT2V\\UJI2ULK53E+6W4
M](UP"2>6(R:@_9@\#MX'^#VC17%FEIJ.JM+JES$JE2AF<NB$$YRL91?J#7L5
M:4:$8>]U/L*M9R]WH%%%%;F`4444`%%%%`!1110`4444`%%%%`!1110`4444
M`%%%%`!1110`4444`>2?&WX+Q_$NUM=6TF6WL_&&EQO'9W%PI:"XB;E[:=1U
MC;'4<J>1W!^99]3O_A[#;Z9XY\/ZCX9F0B)+BX#7%C)U(V7:[DQ@='*D#&17
MWK398DFC>.1%>-P59&&0P/4$=Q0>3F638;,%^]NGW7]:GQ59:C9ZG;QW%E=0
M7,$B[DDAD#JP]0163XD\;^'O",+2ZUJUK:8P?+9MTASTP@RQ_`5ZU\=_V;_A
MZWPX\<Z[HGAO2M&\11:;-=1WUNK0JC1H6/R(0H)"D9QU.>:X3X)Z5X'\07VN
M3:5\/]+L%TA[>%=0GVSW$\KPK(_W@64+N4`[CG/;&*Y<5B?J\>:USQ\)P)&M
M5M*O[OIK^;1Y5HNG>)OVD?%-WX0\-HWAG2!IT=_=ZEJ5LZRW=LTNU54+R%8,
MS*"1N"MR`37U;\.OV1?AG\/M-2V;2VUZY5D=;O6-DLD)7)(BPH\M268D#KG!
MR`*Y?X<:Q:6/[6/BW3+B3R[O4O#-I);*W`E$<K[P/4X;/T!]*^GJUHS]K3C-
MK<^HH9?1RY/#T%9+[WZATHHHK4V"BBB@`HHHH`****`"BBB@`HHHH`****`"
MBBB@`HHHH`****`"BBB@`HHHH`*J:IJMCHEA/?ZG>6]E8VZEY;BYD$<<8]2Q
MX%>!^.?V@]:3Q=?:!X(TS3;BTTZ,"YUG4C(T#S'</+A1,>9M*X9MP`.0.E?+
M^L2^(_BC\6=0T[XH:^VJ6]I:17FG:3;![>P==V"XB#<E6&#N+$YY.!B@\K$Y
MSA,/SQ<KR@KM+5_Y=>YZIX^_:#T;X[^(K3P#I;W=A\/[B\CAU+69"(FU(E"\
M5LJ-AXXI6&/,(&_`48SSZ*?A;IMKX]A\8Z5?W^E7K1+#>VMI(!;:@B+M02QD
M$951@,,$8KP'QYX.>ZMY-5T2PMY=42$03VK'8M[;#_EED?=<'#(_52!S@FM/
MP3\7?$H\!)!;ZOI/V2P9H)-8UB1_MMFB\;)XB`IF0\;BX!P"0<\^9C\-6JM2
MIORL7DG%>#G2E/$KEL]-WKVTZ]N^VZ9U_P`=M2A.O^&E\-W$=O\`$32)?M=M
MJ0)*Z5;,/WCS#!5ED"[`C=<DC`!-=O\`!K]KGP]XXN8-!\4O#H^ON[0V]\-R
MZ=JC+QN@E<#!/]QC[`M7SEI.D)XV>552_P#^$<GD^TWNH7GRSZ]*>F[@-Y(^
M@!&%4!1SO?$=/"$7A5K3Q2L":8Q"PPJ,2%Q]T1!>=WIM_'C-=>%H>PIJ%[GC
MXOBV53':4VXO3E6Z\WWD^W1:/6]OT"HK\Z_@1)\1/A]HVEWVD>);ZVLI)YI9
M]"UI&FCFA+$QY!.8)"!R4]02#C!^OO@Y\?O"WQCM)H;&;[!XDLB8[_1+IP+B
MWD7AMH_C0$$;A^(!XKH/<PF8X?%RE"C*[CO_`%\NAZM1110=P445\Q>//C[X
M[O/%EYX;\)^"/$ND:5;AT;Q-?^&+V[$CCC$,"(.,YP[D@X^[R*`/IVBOS_N_
M'$>L7(C\0?'SQC9WY;<$$JZ(O('.PPI\N1P>@Y`[U9_LY_&?BN#PUJ/C[Q#X
MK\-VFEM<SVUYJ@=?,=PD1+P[&8X60_/NYP>O-`'WO17Q#K.O^-O@7X7N=7\*
M>+[^_P!*L6C;^P==47J2;I%7RXI3B5,YP!N(Y/&<8][;]ISX>Q^%O#^N?VK)
M=MK+B);'3X'N+N!U4F7S(%!=1'M.XX],9R*`/8Z*YG0/B+X2\4:>M_I'B/3+
MNU+%"Z7*@JPZJRD@JP[@@&B@#IJ***`"BBB@`IDLL<$3RRNL<2`LSN<!0.I)
M[5\Z_'_]JBQ^&&EWEKX6T]]?U^-EBDN%C=M/TYF.U3/,HVD[B!L!!YY([_+W
MCKQ7JNMZ9<ZA\0_%5_K%HIWO:R-Y5F"2,*MM'A3T`&X,??K7-B,5"A9/5O9(
MZ*&'E6NUHENS['\:?M3?#?P?=S:?%JDWB#6(0=VGZ##]K=2#C#."(T/LSCI7
M(?#3]IO7/&GQ/TOPQJGA6RTZPUL3_8_*O3+<VPAB:0M+\NU@VW'RXVDCELU\
MI)XAM-'TZ*XU#1M3T"SFMVN;/^T;%K5;V)0"6@SQ(/F7I_>'K7M'[/-UK'@=
M/$?B74?A-XAO_$&HW82QNIFM()H;+RT_=8FF5HQO#,0%^;(R21QS4\94E4M4
M7)%=^IT3PL(T[P?.WVZ'VW17-^`?&=G\0?".E^([&*6"&^0EK>?'F02*Q22)
M\$@,CJRGW!KI"0!D\`5Z1YYGZWKNF>&],GU/6+^VL-/@`,EQ<R!$7)P!D]R2
M`!U).*^=O'/QCU'QRC:?X=2?3/#4BE9KN97BO+T?W40@&&,_WC\[9X"=6^8=
M8U+Q)XM\8^*X/%-_J-\]AKDT>G^)P9)+32KA9F$5N"2(Q&ZJAP@`/F@-\Q!'
MIGA?7I-9M9X;R);?5["3R+VW4\))@$,N>2C`AE/<'U!I)I['R'$6;XK#Q=&C
M'E[OK;NO*^E]T^UT;444<$211(L<4:A51!@*!T`'85S?C'P=%XGAM[BWN&L-
M=L"9+'4(A\\+^A'\2'H5/!%7M4\366DR)%.7,KW5O:*JC)+S,%4_3J2?8ULT
MSX&$JM&2JK1_U]^YRWA/Q8VJL^DZM&MGXFLT_P!*M.0KCIYL1/WHSQSU&<'!
MJW>>"?#FH:JFJW6AZ?-J*,&%R]NI?(Z$G')'J:7Q/X8A\1V\++,]GJ=FWFV=
M_$/WEN_J/53T93PP_"N:N-0^(FH0)I=OI&GZ;=XVSZS)<"6#'3=%$/G+'J`^
M`,8)-!U0BJCYZ$U"^ZO:WIW7EJ^FN[U_%7C%]'N+?2=(L_[3\17?^JM%;"PK
MWEF8`[$'YGH/:#PYX"73]2;7=<O3K/B-Q@7<J;4MU(^Y#'DA![CDY.3S6CX3
M\(67A*UG6"2:ZOKM_-N[ZY;=-<OZL?0=`!P!^-=#09SKQIQ=*AL]WU?^2\NO
M7LBN;\1^#;779K6_M[BXTK7K!B]EJU@_EW%LQZX8=0>05/!!/K6?>^(6TCXB
MO:W=\(]+FT7[3Y3_`'4DCF(+#W*R`$?[*UVE!,76PDX5:;L]TT=A\/\`]J&3
M0YK/P[\6;<:=?R/Y,'B6WCQIMWD_+YAZP.>A!^7()R`17TS;W,-Y!'<6\T<T
M$JATDC8,KJ>A!'!%?"/BS4%>VDTB"SM[Z[NHSYD=TFZV@B.<R3]MG!PO5B,#
MH2.%_9ZO]9M_C=X:TGP#XLU*YT1;YH]6C>[5=/FB"-(Z06W0*H$F&[$C!/4A
M^B9)G<\9%0KQM+NMGYOM?\>A^EM%%>+?'CQ=XTTC5_`WAWP1J5CINH:]<W)N
M+NZM1<^5###N)"$C@LRC/J1ZU,I*$7*6R/IXQ<FHK=GL5W9VU_;O;W=O%<6[
MXW13('5L'(R#QU%?G%\2[?3;7XZ>*]3^&D5CX5AT,#3IIK6V5[>^N/OW!:/.
MU0IV+\H'*D]37T/\1-2\=1Z!=WFK?%ZS\,6\%LV9-/TN&V0R=F9IGD?J,`(5
M)KY'TBTU2QT#PW8:OH&OZ;I>LS6XU#7[NV*6T<,T@,]PTN?E.QG8;L&N"KC/
M:Q2P[U;2O_PYVT\+[.3==:);?\,>G^'M+^-?QHLO!NI:;X5T2TTE;E]3AU6]
MN66UNA$&2/=$`TB;F)9>N?E.0!DZ?@VRGN/'OB[Q/XHT+3]$UCP^AT:Y>WG$
MJ.R?O99=^T<;&C`SSC.?2ONG3;6SL=.M+73XXHK"")(X$AQL6,`!0N.V,8KY
M^\;?LKR^+/%7B&_M?'NI:9X=\27"W&J:(EE%*LQVJDH68G<@=4`XZ>XP*]$X
M#RGX<_LN^&_VA-%N_B3XP;489]?O)9=.AA?RMEBF(X=PQRQ"%L^C"BOMC3["
MUTJPM;"QMX[:RM8EAA@B7:D:*,*H`Z```44`6:X_Q7\4_!_@FX%IK6NVL.HL
MNY+"+,UT^2`-L,89SG<.W>OGWPOXU\<_'&P_M^^\03^&/#;W,\46AZ,&AO!Y
M<C1E;FY;Y@P*G*QA.O6NP\.>#M"\)K<_V1IT5M+=R&6XN"3)/<.3DM)*Q+N<
MD\L30!U5[\6=6U0%?#7AJ1(LC_3==8VJ$9&=D*@RL0,\.(QTP35":]UK4Y7E
MU?5FN%90OV6UC\BV'J=F69L_[;L/3%<QJ_BU%OKG2-)DMY=3MT#7,TS$6]@K
M9VM*W0L3TC!#'_9'S5T-NCVMHBW-R9GC7]Y,X"[O4D#`%`&;XG\,:?XL\,ZE
MX>OX@=/O[=K=U4#Y01P1Z$'!'N!7QW\/=5U+1/BIX!@U*SM[[4]$UB[T2>UN
M_P#57%VT#Q6['@XW$J0W8G-?:>G:C:ZM:1W=E.D]K)G9*G*N`<9![CC@C@]J
M^6OC_ITG@?XFZ=XLM(<B_P#(U.,QC#?;+!U<@$=WAR!G^Z:PKQ7NS_E?_`9M
M1D_>AW7_``4;VO\`B30/B3X1@O9;R[\1_%.WD@OOLAT^25[:[ADC9[,(%*6T
M1:((W(X^9B_4]OI'Q_-EXTF\->/M#3PC<O:6\]H9+Q;M97D9E*L\8VH<@!0V
M,X;V%8_AR[U>+XA:YX,^'7B+2;#P39VUOK%O)?Z>)I@MZ#.4AVR*'0;B0[`X
M)VG.,UX;\38'A\;>)SX?\5S^)+N'3HKN\U68QR%+^*4O'%'Y8"JJHOW!G!/K
M7CUJ:=24*CO;S=U=KRM\M3U:-1J$9PT^6]K^=_GH?45K-\4OAUXU\11>"M'T
M+5/"FO3KJ?\`Q-+MX?L5TRA9E4+EB'*B3IC);\>W@@\5:];7L7C37;6^M;Q%
M5M+TRT^S6D8[@L6:63/(.Y@I'5*\=^$OQ,M+_1+#6(;+Q-XP\1ZS''+J]UHM
MC+=6^F2."R6Q&[;$J9*[5R>-SXW9/I\6A_%+QO>'^SX++P5H`RAN=5A%UJ,O
M4;D@1_+C'3&]B>Y7M32QM1*E'1+KL*^$@W5EJWTW-0^$O#UMX;N]"32;"VT&
M>)XY[2*)8H2C##9"X'([U\6ZMXITSP?X[U&QT76H]=N-`7'FP2>8][IVXEX'
M8C#SV_W@P/S`'."6%?8.M?LG:'XMTRZM?%7C3QEK<DT;JK37ZPQ1,W1UAB14
M)'HP(]J_/SXR_![Q)\"/%-@]U;"TFM'_`-#U:%-MGJ21C(<`?<E(PKQG@D]P
M<GMP6#GAVW*5[GB9XJ.8TE3=/;9_IZ/K]^^IZ'XO\5V.L?%/PMHUCN!N9;.Z
M>?&4N(U+31LOT^9<Y_C_`-FO<Z^<_AOI,FOZ]X0UFQTN[E\/Z'>WME'J<T1,
M/ER0F2"%9#]]T)DXZJ`,XS7T97HGY/G5%8=TJ*35H]=]VK_-):=`HHHH/%"B
MBB@#Q[XT:?J4_B/P'/IF\S2W<EG@?=RVR12XZE5:$,1W"$5W7C'Q2V@16=C8
MQK<:]JLGD6-NP)!;^*1\<A$'S$^V.]87Q?N!I>E^'M9(&W2]:M9I&)QMC8E'
MQR.S]ZXCQEXM?04\9>.&E1Y]W_"/Z'C!V%<^:XP2/OAC_P!L\=Z#W\/0>*I4
M(VNHW2\Y.6B?EJF_),]'\"^#;7XI:EK.A+J&_0=(N8EUVYX\_5[@C)AW*1LC
M&T*Q';Y5P`37KWBCX">$=<N8M3TJWE\,^([5-MKJ^A.;6>$A-JYV8#`#`P>P
MQD5\&?!G3_$>DSPZ[I>HZU%?:A(8-/TW2)&^T:E+R.5Y!0'.2P(&"3TY_1?0
MO`GQBT_PGI<MYK'A?5=?>(/=VE[!);"-R"2@GA+*=O`SY7///2O)Q=#$SJ<]
M*6B^1^K9)]1PE!X91U7Q2MN_^!Y:+8^<3^T#\</A5K.O^'%U_P`,>,K?3+I+
M:&ZUO;#=2L50[8XDE1Y""X4_?.0>:]VT/PYXQUKQS;^,_B%JNCRZM:6#Z=8:
M=H<<J6D"N^^23]ZQ9I&"H#T`"]^#7@&M?#OXG^'/%5CJ/BWP3K-]ITVO)JVH
MMHB?;82@D,H`6.3+JK!1B6+@+P02"?1_BG\0?#?C7X1:GXJ\,>)%M]7\-L+^
MT=7\JXM;I,KY4D38(W!F0JPPP;N*,=*MRPI='HW;J>E@XTKRJ=5LO(\YE\(>
M!?&'QQ\9Z-\5=?;4->1HQHIDO$@A2TVEE0>7M`E4DY1P,XW8.2:]@\W5]?\`
M%^G?#S3O'NCZAI^M6EPMRQL$N+^TB2,DL?*=(@C`A`S)U88#=O&OAQ\3-.\*
M>#;#1?'_`(!_M?4-7NVW7-E;6]R]]<7#D@3I*5)E)<J3\PP`.*^JOV<_AY?^
M#D\8ZQ?>%;/PK'XAOXY[31K<Q%[:&.%8QO\`*^169@S[5)QNYYS48>C[:HG+
M6,?1K3MV[E5ZOLJ=HZ2?K?Y]SV#P_HMMX;T'2]%LC(;/3;6*TA,K;GV1H$7)
M[G`&36C117LGDA1110!\LZ=9KX%^.7COPA&&%AK4:^*K$$YVF9_+N1]/-`;O
M]^J&I:WKWQ"UN?1O"]PVF^&[&8P:GKJC$TLBGYX+3/&005:4Y"DD+DCCK/VB
M].N-)\?_``F\9P/LMX=1GT*^P&.Z.[C_`'>[!X`DC'4?>9<]*VX/LMO"T<'D
MQPP94K'@+'W(P.G7-`'FVA:':V`N];UV*'1/#.CSRMI]C<2[$X;YKVY9N6E=
MLE=Q.T$'EFR.`U_QWJWQBUJST/PS!,FASKYJQS*4%W"21]IN1U6UZ[(CAISU
MP@-=C\4U\+75WX>UOQKXCM5\#K)&MKIWWX+^[<Y225AD/&JC(7[O5F..*IWG
MQ-T'X<?%:+PD-&>*PU@1SWFNB0ND-U,SB"*0X.U2L>U1D!1MP`H)H`]ATVR7
M3;"VM%D>401A-\A^9L#J?\!P.U>=_'[P]_;?PUU&[BC+WVA,NK6P`)),.2ZX
M'7=&9%_X%67?_&#4M%\=ZH=1TR-?AO97D>BS:Z"?]#U`QK)B7TC/FHF[``(Z
M\UY[)J7CK^S_`!#\8H1)XA^'6K75]I5SI$"L3#I\.Z.&[C'0J6$A<XZ-[Y5-
M)JS&FT[HYC1_%6I0^#[305\&^"?%.BPI(=)U'6DD-S:6\QW"+<F&*J6.,,#M
MP.,5R>@:GX<\&V]W;W6M:1#/=W+W$EK:.%AMV(`,:*26"C'\1S7OWP-_8P\,
M^*/AIX1UKQ=J?BEGO+/[3+HK78AMTWDD<*H<`J0<;L_,:^J/"WP=\`^"].^P
M:%X0T:SMB<L!:J[.>F6=LLQ^I-<$\'4JQY*L]/)';#%0I2YZ<-?4^4/V,=4U
M8_$WQ#9^'8;UOAO/I[3S2&)_L::B)5'[IF^4,48Y"\'&<<"ON:D````&`.@%
M+7;3AR14;WL<<Y<\G*UKA6;KWA[2/%.F3:7KFF6>IZ=-CS+6\A66-L=,JP(K
M2HJR3YN^-MAI/AW4_`7AC1M/L[#3K6VO[R*TLT$20E3`@PBX`!\Z3MU'UK@J
MVOBUJTFL?'/6;<L?L^A:1:6B+D@>9,TDSG'^[Y7/M6+0?EO%%3GS&2[)+\+_
M`*A1110?/!1110!S/Q#\.-XL\$ZWH\:AI[JW80@G`\Q?F3G_`'@*Z*Y_8Z\'
M?&_PUX/\5:'XAU#P[HNI6,=_-HUI$LEJDLL:LYA0MB$[MVX#<,]`.\E>C?LH
M>*-VE^+/`<L927PKJ!EMSV>TNV>:/G'4,95_`<GF@^WX.Q";J8>7^)?D_P!#
MOOA9\"?!GPAME_L*QDFU,Q+#)JE])YUU(@Z*&Z(O^R@5?:O2J**#[M)+1!7R
M-^UQI?A*[UC0=.B\/:2_B>XD34;[4Q:1_:8[:,D1H9,;OWD@/?[L3BOKFOAO
MXR^$/B5%\4?$VLW7@O5=7T?4KI5T^\T?;=E($B151XUPZ<ACR,;F(R>IYL6Z
MBHR]FKLZ<*H>U7M'9',_"G0XO&?[0'@;29-S6^BB;Q!<(O8Q`+"2>P\UQ^6.
M,U^A5?*W['7PXU33?^$L^('B'39["_UZ9;/3[>[A,<\-G"2,LI&5WOS@_P!P
M'H17U31A*/L:,8/<,55]K5E);!11172<X4444`<)\9O`LGQ)^&/B/PW;R>5?
MW=OOLI<X\NYC820MGMB1%KXQ\,_`WXM:S\%M=\5:))/;^+O%LU]'K'AG45$4
M=RDDCQF6(.5\J4#.,G!7!],_H310!\;Z)^RUK0\>^&?#VN6<>I_"73K.YO$C
MNYP\MM//;B$V?WMQ5'+R(PR`#C.0*]+^%O[,ECX.\)>-?#/BK5W\5V'B5D@+
MW2,LD=I%'LACR6.&0$D,N"#@CH*]]HH`\\\`?!;PI\//`MQX+M;:75-#NIY;
MBXCU@I<F=I""V_*@,.!U';N>:['0O#^F>&=%L]%TBRAL]*LX_*@MHA\D:>@'
MI6E10``8&!1110`4444`%0W5U#8VL]U<2+%;P(TDDC=%4#))^@%35Q/QA\/:
MUXN^%WBW0/#LD$>LZKI\MG`UPVV/]X-K`G!QE2PZ4`?'7@S5[WQEJ/BGQU?6
MXMSXKU)KVUB90)$M%18X%;'?8@/XY[UUM8GBZV\3_"2+0K/7?!]S]AOI$L+*
M?3;R*X5I0A(1@Q0J=B,>1@XXJ*R\::/=W*6DL\EC?./EMM0B:WD?_=#@!_\`
M@)-!^29MA\8\3.K7IM.6O?3Y'04444'CA1110`5+\*;J7P]^T?H4RM_HOB?1
M[K3)(PIQYL!%PC$^NU9`/Q]:YWQ%XRT+PI#YFKZG;VS'[D);=+(?14&6;\!6
MQ\$?"_BSXG_$GPQXUDT6\T'P+H/FWME>77R7&JO)&8U"IG*Q%7+;B#N`QGYN
M`^FX8PV)^N1K0B^17N^EK?Y]C[3HHHH/TT****`"BBB@`HHHH`****`"BBB@
M`HHHH`****`"BBB@`HHHH`****`/%_VFM*6]\#:-J#)N_LC7K&Y`W$$&1C;9
M'KC[1GGMD]A7B%]IUGJENUO?6D%U;MUBGC#J>W0\=Z^C/V@EF/P;\62P)O>U
MMUNBN[;E8I$D;G_=0U\^4'Y_QC%QKTJBZIK[G_P3S#4_A3J%E>2WGA#Q;J>B
M,PW?8I&-Q:EN,81S\H_/VQC%)!>?%O3+IX[G3?#FL6^T;)8)WMVS[[L_H/QK
MU"B@^;685)*U6,9^JU^]6?WLXQ-;\<3J8U\):=;RE3B6?5]T8;'<+$3CZ5AC
MPE\0_$++_;OC"WTNT;*R6N@P%69<\8G?YE/N!7I]%!$<8Z>M.$4_2_\`Z4W8
MY?PW\//#OA9EFLM.C>_ZM?W/[ZY<]R9&YY]!@>U?3O[-6IC4/@]HD&X,VE37
M6EDJFT8M[B2)<#)XVJM>%5ZS^RG<%O`?B&TVJ(K+Q)J$4>,Y(9UE)/ONE;\,
M4'U?".(J5,15]I)MM+?R?_!/=:***#[P****`"BBB@`HHHH`****`"BBB@`H
MHHH`****`"BBB@`HHHH`****`///CU:S7WP2^(EO;QF2:30;U50=2?):OEOP
MCJG]M^%=$U+;L^UV<,VW&,;D!Q^M?9OC"PBU7PCK]A<,RP7=A/#(4.&"M&P.
M">^#7P3\%_$ECK?P_P!"MH)XS>6-G%!/!DATVC:&(.#@XR#TZX)Q0?'<8TG*
MA3J);-_BO^`=7XF^UG1+M+&PAOIY%V>1/*8XRIZEBH+8`SP`2>E>`>*?AIJM
M_H>H>*9+B^TE;0*XL+16BWQ*X\QPA8E<)N(W')QDJG2OI:N9^(K%/A]XK8=5
MTNZ(_P"_34'R.6XZIAZD84UNUKY=NQQ^D>%M0\':O9PZA)KNMV=R3"NH0:E=
M,T1)&#-!O(`_VU...5%>K56T^9[BPM9GP7DB5VQZD`U+<7$5K!)//(D4,2EW
M=SA5`ZDF@Y,37G7DG/?\_ET^1)7HO[(%Y/>^%O';-$JVB>*[U('_`(GPD0;(
MSV8$=J\&36-?\6F5-'MY=%TP'`U*^@_?S>IB@;H/1I/7A37O?[)<=GHN@^-/
M#B7SW5_9Z[)>S&7:)"MS%&ZL0H`Y8..`!\IP*#ZSA*FJ6)G&;]YQV^:WZ?*]
M^Z/H>BBB@^^"BBB@`HHHH`****`"BBB@`HHHH`****`"BBB@`HHHH`****`"
MBBN$^+'Q=\,?!KPT=<\2W>Q)'$-M:QE?.NI#_"@8@<=220`.210!R'[3?Q*M
M?`_PWU/2((I;WQ+XFM9]/TRP@C,CN738\K``X1`X)/T'>OFVUTW0-3L;/2;:
M86]]ID"1PF',-S;!0`"H8!MO'0@J>X-6/B5)XO\`B7XUL/B#:7VF1:)8V#VL
M3>&6_M"?RBZOB57*BX7[QVQ[&R>,FN&U/QCI^L)<Q^(+"Y2#3@DT'BC0UDFM
MH1)&'23>HWPD@C=&Z\'(:FXM;GR'$-'$8J4)45>$;ZQW3?>/7Y>9Z9HB:M#!
M+#J\UO<31OB.Y@39YJ=BR9.UO7''<8Z#-^(;HG@+Q.9&4*=-N%^8\$F-@!^)
M.*S?A]K6O7T<UIK/V>_A1!)9ZW9%?(OHB<<@'Y)!W'3TZ4OQ<WM\/=7A0+ON
M3#;`L>!YDR)G\-V?PI'Q4*3CC80E;XEMMNOZMI;:R.U551555"JHP`!@`5%<
MVD%XJ)<1K(B.L@5N1N!R#CO@\_4`]JFKF=;\:66G:I'H=I;76K>()TWQZ98)
MNDV_WG8D+&ONQ'XT'-0HU:TU"DFWY$TNMW6IWDMEHB1L(',=Q?3*3%$PQE%`
M(\QN>QP,<G/%9.ER7OP7\:6'CK1K_4=2U/4[RWTS4;&[N4":C%+(J!%&T!75
MMK*5Q@!AT)JQJ-MX\TP066G^&((8[BP<V<-IB8P3JR!8YG+)%&-K,V06'RX7
M=7(^$_";^,/#D.I3ZAJVO_%?<9H'\V73].\+.&^5BRKB2X5ESL4'K@\#<:Y7
MM8^PR;*L50K1K\RA%;ZIMKL[=_ZNS]*J*^>_@%\?&\5ZS??#CQ??6$OC_1$^
M:ZLG#0:G&N,R+C[DJYP\9Q@Y(XR!]"5)]XFFKH****!A1110`4444`%%%%`!
M1110`4444`%%%%`!1110`4444`%>"^'K;3O&G[0/CRX\1K:W&J>%XK;3]&TV
MX(<V]K)$LLMTJ'C,LC[=XY`C"G'?WJN)^(?PE\)_%&&T7Q'IS2W%D2;:\MIG
MM[F`'[P65"&"G'(S@UE6INI!P3L-.QXW\<M#T3X4WFF_$+2K5K)+Z_BT[6K2
MRC.R\CD#!)O*4',R.$Y'+*6!S\N.9\,^(_!\KWMOX;T>^=KN3S+F.P\/7>)'
M;C<^(<<XQEJ]3U#]F70]2DTUKCQGX[EBTN^34K*&XUHW"VUPF=CJ949B1N.-
MQ/4UK:A\#CJ;7!G^)'Q"7SP0X@U9(1@C'`2(!?PQ2H>VHPY+I^IS5\+3K2YG
M=>A\L>-OA)XSTR\L]?\`A1X*URUNKF7?>:=,8;?3YD^8$M!)(K))D#E0!CGJ
M:X#XR^,+NP\&:GX<\9^']3\*^(;F*.6&"Y02Q3E)5?$<J$@CY,9..M?>=O\`
M`OPFEC%9WDWB/5(D8,W]H^(K^82$'(W*9MK<CIC%:UA\'_A[I<T4]GX&\-0W
M,0PLZZ7!YHXP3OV[B2"<DG)R<U:]HW>5OE_PYQ5\FPE:<*LD^>+33ZZ:Z]S\
M^]>_:"\.W5]IFDZ%K5M:&^<+<:Q>6TK0:?'W8Q@;G;K@`8SC)Q7H_P`*=%UG
M3H;M_`4?A;XBI<R^;=:W9ZR+749D/*FX@F!,9'*A=^/0#FOM3_A"O#/_`$+N
MD?\`@%'_`/$UR7B?]G_X;>*\O=^$=-M;W<6%]IL7V*Z5B,$^;#M;D<<GH33?
M.G>#L&"R;"8.FZ<(WONWN_Z['CD_B+Q/83O!?_#'QE'*O(-K;P72,,D9#QRD
M=NAP>AQS7.Z_XIUGQ!JWAWP5#X:\4^'KWQ5>"S%_?6:P^5;J-]P\9W-EQ$&P
M<8!()Z5ZQ=_`_P`5^&'N+CP5\7?$NFVC#(L=:B36(D.?X3,0X&#TW=AR<5\H
M?%SXY^/_``M\7/`LFH76AZIJWAVZU"UM;M=.>!&\\+;LSQB8YP!N`!'/!R*B
M57$ZK0ZHX&@FI:GTO\3O@SX0^'OPKN==\':7::!K?@B)M<T[4(4_?/)`C.T<
MTA^:595W(P8G.^O?/#>M1>)?#ND:U#%)##J=I#=I%*,.BR('"L/4`X-?-^C?
M!_Q-\=-(L;_XC?$>^O\`P[-B<Z!I%@FGP.=QPLCAG:11CH?S[U]0111P1)%$
KBQQ1J%5$&`H'0`=A6>%I3IQ:F[G8VGL/HHHKI$%%%%`!1110`4444`?_V0``
`
end

--=====================_391535838==_--


