Message-ID: <3923670C.67D83A99@example.com>
Date: Wed, 17 May 2000 23:44:12 -0400
From: Doug Sauder <doug@example.com>
X-Mailer: Mozilla 4.7 [en] (WinNT; I)
X-Accept-Language: en
MIME-Version: 1.0
To: Joe Blow <joe@example.com>
Subject: Test message from Netscape Communicator 4.7
Content-Type: multipart/mixed;
 boundary="------------177483472E7788F4AD46AB1A"

This is a multi-part message in MIME format.
--------------177483472E7788F4AD46AB1A
Content-Type: text/plain; charset=us-ascii
Content-Transfer-Encoding: 7bit


The Hare and the Tortoise 
 
A HARE one day ridiculed the short feet and slow pace of the Tortoise,
who replied, laughing:  "Though you be swift as the wind, I will beat
you in a race."  The Hare, believing her assertion to be simply
impossible, assented to the proposal; and they agreed that the Fox
should choose the course and fix the goal.  On the day appointed for the
race the two started together.  The Tortoise never for a moment stopped,
but went on with a slow but steady pace straight to the end of the
course.  The Hare, lying down by the wayside, fell fast asleep.  At last
waking up, and moving as fast as he could, he saw the Tortoise had
reached the goal, and was comfortably dozing after her fatigue.  
 
Slow but steady wins the race.
--------------177483472E7788F4AD46AB1A
Content-Type: image/png;
 name="redball.png"
Content-Transfer-Encoding: x-uuencode
Content-Disposition: inline;
 filename="redball.png"

begin 644 redball.png
MB5!.1PT*&@H    -24A$4@   !L    ;" ,   "Z"@1G   # %!,5$7___\ 
M   !   +   5   :   7   1   *   #   <   R  !$  !-  !(   ]   C
M   6   F  !A  ![  "&  "'  !]  !T  !@   Y   4   &   G  !+  !O
M  "0  "E  "[  "_  "K  "A  ",  !S  !;   N   (  !,  !W  "9  "T
M&1G*.#C5/3W;*2G=!06X  "H  !Y   Q   8   $  !%  ":  "[)"3186'?
MA(3F?W_F5E;J'Q_2  "Y  "C  !=  !"   H   )  !G  "Z#P_05%3>DY/E
MK*SIF9GM967O)277  #!  "Q  "<  !M  !3   V   ;   %  !*  "!  #+
M("#=9V?HG)SKIJ;MBHKO45'O%!31  ##  "V  !X  !>  !    B  !7  "2
M  #"  #:&QOH557L>'CO>'CO5U?O)B;A  #.  "W  "G  "5  !'   K   /
M  "=  #%  #A!07K*"CO/#SO-37O&QOC  #0  #)  "U  "7  "$  !L  !/
M   2   "  !B  #I  #O @+G  #8  #+  "Z  "P  !P   3   D  !8  #(
M  #3  #-  "S  "#  !N   >  !^  #   "D  "-  !_  !I  !0   P  "1
M  "I  "\  "J  ";  !E  !)   J   .   T  "L  "O  "M  "F  ")  !Z
M  !K  !:   ^   I  !J  ""  "?  ">  "6  "/  !\   9   '  !5  ".
M  "*   X   0   _  !R  "   !<   W   L  !F  !#  !6   @   S   \
M   Z   ?   ,   =   -                                        
M                                                            
M                                                          #\
M+ME%     7123E, 0.;89@   !9T15AT4V]F='=A<F4 9VEF,G!N9R R+C N
M,3U>OF@   ((241!5'B<8V" @_\0P( !F)A96%G9V#DX,:4YN+AY>'GY^+D%
M!#E0)?\S"_$(BXB*B4M(\DH)2<L@R?YGEI635U!44E9155/7X-%DU4)(R@AI
MZ^CJZ1L8&AF;*)@*\YF96\#D_K-:2EA9V]C:V3LX.CDKZ+BXNK%#-?YW-_.P
M\O3R]O'U\P\(# H6#0D-"X^ 2/YGBXP*BHZ)C8M/2$Q*3G%62$U+%X Z]G]&
M9E9V3FY>?D%A47%R26E9E$=Y1258[C^3D&15=4UM77U#8U.S<DMI:UM[AV8G
M. C^=[EUMRH[]O3V]2=-2)XX2;%5='(H]Q2('-/4:6J3IB?-2)K9G*TT2T4U
M:_:<4&YIB-S_N7+S5)VJFZ=7SY\X2V6!U<)%BY<LA9KYW]Q5?MGR%*453BV3
M5CJORA)+7;UF[3JH'/MZ%_'6T@T;-ZW<K&J5M67KMNT[!)BA<LP[U^S:G16\
M9\]>JWW[10_(IZTQ.W@($E7_+;BD#F\3WZ*P;-F1H[.WSI'D/29P'!J+__\?
MESUQV..DR*)3B[:J;SNM?49(V@(N%\%VEK_#Y=PV^?9=PIE\85.E(^")X_]_
MCH.R8>=Y0S,OA&JGFV5T6B"EF___#TE?7'M)ZO+E*]P[KQ[O0DY20);%M2FL
MUR]>O7B=[09:<@.QF2QDM-S=M2PP4^)_5(":"/%(84W7 )A(.MC?YL?R    
M)71%6'1#;VUM96YT &-L:7 R9VEF('8N,"XV(&)Y(%EV97,@4&EG=65T-G,[
-O     !)14Y$KD)@@@  
end

--------------177483472E7788F4AD46AB1A
Content-Type: image/png;
 name="greenball.png"
Content-Transfer-Encoding: x-uuencode
Content-Disposition: inline;
 filename="greenball.png"

begin 644 greenball.png
MB5!.1PT*&@H    -24A$4@   !L    ;" ,   "Z"@1G   # %!,5$7___\ 
M    $   &   (0  "   ,0  0@  4@  6@  2@ (8P (<P (>P 0C  (:P  
M.0  8P 0E  0G  AI0 0I0 AK0!"O1ACQC%CQCE2QB$IS@ 8O0 0K0 8K0 A
MO0"4UF.MUGN$UE)*WA@AU@ 8Q@ 8M0  *0!"SA#.YY3>YZW&YY24YV-2YR$A
MW@ 8S@!2WB&<YVO6[YR][XR$[U)"[Q"M[WNEWG-:[RDAYP 8U@ QYP!2[R%K
M[SE*[Q@IYP I[P Q[P (A  0M0                                  
M                                                            
M                                                            
M                                                            
M                                                            
M                                                            
M                                                            
M                                                            
M                                                            
M                                                            
M                                                            
M                                                            
M                                                           I
MU?G9     7123E, 0.;89@   !9T15AT4V]F='=A<F4 9VEF,G!N9R R+C N
M,3U>OF@   %M241!5'B<==)M5\(@% =P#VS(@,$$U^-<J=LH*^FYM"RS[_^9
MB+F'LRSOJYWS._<R^-]>KRU;5>]/60 ]SX,0^'\8HC[& 29]Y('?:!&F+.2<
MAR(@R.NVVF@02C4<#N-8<H&C+B+*U<'AT?'):3**.<,(M@8Q3\].SL?CR33+
M"\4%T<V9-F*JN)A<SJZN;^8F25481%Y]&>#:LMN[^]G#XU-FDB)VC<V)WD 6
M9]/KYY?'U\72F1N*4374:J'R[.U]M?KX-%E>_PW8#K614(E9K+_6\Z7)DR)5
M&]$:$C(QV7R9F9)&BH>4:+^V 8\38\HF1ZGD+*AN[TSC4*5)7LIWJN2V#52)
M6-AWSS)*"R>Q(T9Q!/W:?$T$ERJ.E9)RP\KW!$V2%B)"RQ XWX2"D@ZY1A=>
M0!EC0M"@W]+6K ]T1##&U$6K84.VWA, -4*11EZU$YV]<1^^#V&Y+*TTV=K_
MJK<?N]NT5W;QG_7=A1_-8>>-T@@L+    "5T15AT0V]M;65N= !C;&EP,F=I
F9B!V+C N-B!B>2!9=F5S(%!I9W5E=#9S.[P     245.1*Y"8(( 
end

--------------177483472E7788F4AD46AB1A
Content-Type: image/png;
 name="blueball.png"
Content-Transfer-Encoding: x-uuencode
Content-Disposition: inline;
 filename="blueball.png"

begin 644 blueball.png
MB5!.1PT*&@H    -24A$4@   !L    ;" ,   "Z"@1G   # %!,5$7___\ 
M  @  !   !@     ""D $$( $$H "#$ $%(((7,(*7L(*80((6L &%H "#D(
M(6,0.9P80J480JT80K40.:40,90 &%(0,8PI4K4Y8\8Y8\XI6LX82LX80LX8
M0KU":\9[G-:<O=Z,M=YCE.<Q:]XA4MX82M880L80,:4  "'.Y^_G[^^<QN]2
MA.\I6N<0.:U*>\ZMSMZESN]:C.\0,9Q:A-:MUN?.[^^,O>]*>^\8.:482L:,
MO>>UY^^4O>\  "E:C.=SI>]KG.\(*8PQ8^\I6N\((7L                 
M                                                            
M                                                            
M                                                            
M                                                            
M                                                            
M                                                            
M                                                            
M                                                            
M                                                            
M                                                            
M                                                            
M                                                          #!
M,@U5     7123E, 0.;89@   !9T15AT4V]F='=A<F4 9VEF,G!N9R R+C N
M,3U>OF@   &(241!5'B<==)M5YLP& ;@$DZ )A!2DX;,"4RG!2+:JHO;K&_;
M?/G_ORA[TE;LL<>;+YQSG3LAY!F-A@0H1"APHYT$.(HA48+#CXS'A*80DK$H
M0=OH<DXG>T(*,54I*9+0#>J23(LO^U\/RJJ64PV(!L1,[WT[//I^?#)K6MGI
M+#)O>P8QG>P?GO:G9^?SIFP7BC"\*;J$:W%QV??]U8]Y4]7"4I:#>0PB,I'7
M/_O^U^^;65/60H&%:PMCNKR]OKN_?_"U5B[>S3T66I0'?_[^N_&[U:+3A*_,
MC1QF3Z*=S9]?&D]R:M,L3@9+EW75@%1 "ZLIC_UW>GLLJ)5M65:W-=!2:<+\
M^59F8J*F==U"28H.B,.2&PMSEJJE%%(N.JOT:U9$9K4D6("++%6VZZRU*O6$
MUS5_B# 'U$HIG5+"BR@9"(HF'W-"*7TEG(^!UBNNS"&3QP7CG#.X=[-I;7XV
M8))'D!PF FV3QP 9@XT)W^7M;OUK@. 9P&T-Q6ZVI^E3^8B[X[L#_P$45,S8
MF6D.OP   "5T15AT0V]M;65N= !C;&EP,F=I9B!V+C N-B!B>2!9=F5S(%!I
49W5E=#9S.[P     245.1*Y"8(( 
end

--------------177483472E7788F4AD46AB1A--

